<?xml version="1.0" encoding="UTF-8" standalone="no"?>
<svg
   xmlns:dc="http://purl.org/dc/elements/1.1/"
   xmlns:cc="http://creativecommons.org/ns#"
   xmlns:rdf="http://www.w3.org/1999/02/22-rdf-syntax-ns#"
   xmlns:svg="http://www.w3.org/2000/svg"
   xmlns="http://www.w3.org/2000/svg"
   xmlns:sodipodi="http://sodipodi.sourceforge.net/DTD/sodipodi-0.dtd"
   xmlns:inkscape="http://www.inkscape.org/namespaces/inkscape"
   version="1.1"
   width="841.89pt"
   height="595.276pt"
   viewBox="0 0 841.89 595.276"
   id="svg193"
   sodipodi:docname="15_Guia_Liberacion_Traballos_Universitarios.svg"
   inkscape:version="1.0.2 (e86c870879, 2021-01-15)">
  <metadata
     id="metadata197">
    <rdf:RDF>
      <cc:Work
         rdf:about="">
        <dc:format>image/svg+xml</dc:format>
        <dc:type
           rdf:resource="http://purl.org/dc/dcmitype/StillImage" />
      </cc:Work>
    </rdf:RDF>
  </metadata>
  <sodipodi:namedview
     pagecolor="#ffffff"
     bordercolor="#666666"
     borderopacity="1"
     objecttolerance="10"
     gridtolerance="10"
     guidetolerance="10"
     inkscape:pageopacity="0"
     inkscape:pageshadow="2"
     inkscape:window-width="1920"
     inkscape:window-height="1043"
     id="namedview195"
     showgrid="false"
     inkscape:zoom="1.0784914"
     inkscape:cx="542.85585"
     inkscape:cy="346.74191"
     inkscape:window-x="0"
     inkscape:window-y="0"
     inkscape:window-maximized="1"
     inkscape:current-layer="svg193"
     inkscape:document-rotation="0" />
  <defs
     id="defs5">
    <clipPath
       id="clip_0">
      <path
         transform="matrix(1,0,0,-1,0,595.276)"
         d="M0 0H841.89V595.276H0Z"
         id="path2" />
    </clipPath>
  </defs>
  <text
     xml:space="preserve"
     transform="matrix(1 0 -0 1 0 595.276)"
     font-size="12"
     font-family="XuntaSans"
     id="text9"><tspan
       y="-12.4359"
       x="415.263 420.207"
       id="tspan7">15</tspan></text>
  <g
     clip-path="url(#clip_0)"
     id="g15">
    <text
       xml:space="preserve"
       transform="matrix(1 0 -0 1 0 595.276)"
       font-size="11"
       font-family="XuntaSans"
       id="text13"><tspan
         y="-559.2756"
         x="562.4851 570.4821 576.6641 579.34817 585.17819 588.1042 594.4402 600.2702 604.6471 610.4771 613.40316 619.23318 622.1592 625.5252 628.3192 634.7432 640.6062 644.9842 650.8142 656.0612 658.8552 665.08126 671.3732 674.29928 680.63528 686.4982 689.42428 694.13229 698.50918 704.3392 710.6752 716.5052 719.6952 723.0612 729.28726 734.5122 737.43826 743.62026 749.91226 752.70626 758.25027 764.1132 768.6012 773.8262 776.6202 781.3282 787.1582 791.6462 794.4402 800.6662"
         id="tspan11">Guía para a liberación de traballos universitarios</tspan></text>
  </g>
  <path
     transform="matrix(1,0,0,-1,121.8406,52.474428)"
     d="M0 0V-16.474H-8.044V-24.422H-16.13V-32.365H-23.845V-40.011H-31.888V-47.663H-37.404V-54.392H-48.436V-47.663H-53.952V-40.011H-61.996V-32.365H-69.711V-24.422H-77.797V-16.474H-85.841V0H-78.078V8.234H-70.04V16.474H-53.952V8.234H-46.47V0H-39.365V8.234H-31.888V16.474H-15.801V8.234H-7.763V0Z"
     fill="#0a7cba"
     id="path19" />
  <path
     transform="matrix(1,0,0,-1,0,595.276)"
     d="M73.404 495.141H78.919V495.951H73.404Z"
     fill="#0a7cba"
     id="path21" />
  <path
     d="m 401.4607,64.63037 v 56.693 H 82.4637 v -8.014 h 4.213 v -8.203 h 5.556 v -7.117 h 8.833 v -8.019 h 7.869 v -8.577 h 8.393 v -8.766 h 8.688 v -7.997 z"
     fill="#0a7cba"
     id="path17" />
  <path
     d="M 398.976,121.323 H 809.22599 V 64.63 H 398.976 Z"
     fill="#0a7cba"
     id="path27"
     style="stroke-width:1.14955" />
  <text
     xml:space="preserve"
     font-size="36px"
     font-family="XuntaSans"
     font-weight="bold"
     id="text35"
     y="592.50763"><tspan
       y="180.56935"
       x="62.612701"
       id="tspan33">1</tspan></text>
  <text
     xml:space="preserve"
     transform="matrix(1 0 -0 1 0 595.276)"
     font-size="36"
     font-family="XuntaSans"
     font-weight="bold"
     id="text51"><tspan
       y="-322.7887"
       x="59.1927"
       id="tspan49">2</tspan></text>
  <text
     xml:space="preserve"
     transform="matrix(1 0 -0 1 0 595.276)"
     font-size="36"
     font-family="XuntaSans"
     font-weight="bold"
     id="text67"><tspan
       y="-235.1509"
       x="59.1564"
       id="tspan65">3</tspan></text>
  <text
     xml:space="preserve"
     transform="matrix(1 0 -0 1 0 595.276)"
     font-size="36"
     font-family="XuntaSans"
     font-weight="bold"
     id="text81"><tspan
       y="-411.9383"
       x="442.2564"
       id="tspan79">4</tspan></text>
  <text
     xml:space="preserve"
     transform="matrix(1 0 -0 1 0 595.276)"
     font-size="36"
     font-family="XuntaSans"
     font-weight="bold"
     id="text97"><tspan
       y="-326.899"
       x="445.1003"
       id="tspan95">5</tspan></text>
  <text
     xml:space="preserve"
     transform="matrix(1 0 -0 1 0 595.276)"
     font-size="36"
     font-family="XuntaSans"
     font-weight="bold"
     id="text115"><tspan
       y="-228.7729"
       x="442.0134"
       id="tspan113">6</tspan></text>
  <path
     transform="matrix(1,0,0,-1,0,595.276)"
     stroke-width="2"
     stroke-linecap="butt"
     stroke-miterlimit="4"
     stroke-linejoin="miter"
     fill="none"
     stroke="#000000"
     d="M83.464 141.606H206.771V171.913H83.464Z"
     id="path133" />
  <path
     transform="matrix(1,0,0,-1,0,595.276)"
     stroke-width="2"
     stroke-linecap="butt"
     stroke-miterlimit="4"
     stroke-linejoin="miter"
     fill="none"
     stroke="#000000"
     d="M83.464 111.299H206.771V141.606H83.464Z"
     id="path139" />
  <path
     transform="matrix(1,0,0,-1,0,595.276)"
     stroke-width="2"
     stroke-linecap="butt"
     stroke-miterlimit="4"
     stroke-linejoin="miter"
     fill="none"
     stroke="#000000"
     d="M83.464 80.992H206.771V111.298999H83.464Z"
     id="path145" />
  <path
     transform="matrix(1,0,0,-1,0,595.276)"
     stroke-width="2"
     stroke-linecap="butt"
     stroke-miterlimit="4"
     stroke-linejoin="miter"
     fill="none"
     stroke="#000000"
     d="M83.464 50.685H206.771V80.992008H83.464Z"
     id="path151" />
  <path
     transform="matrix(1,0,0,-1,0,595.276)"
     stroke-width="2"
     stroke-linecap="butt"
     stroke-miterlimit="4"
     stroke-linejoin="miter"
     fill="none"
     stroke="#000000"
     d="M206.771 141.606H330.078V171.913H206.771Z"
     id="path157" />
  <path
     transform="matrix(1,0,0,-1,0,595.276)"
     stroke-width="2"
     stroke-linecap="butt"
     stroke-miterlimit="4"
     stroke-linejoin="miter"
     fill="none"
     stroke="#000000"
     d="M206.771 111.299H330.078V141.606H206.771Z"
     id="path163" />
  <path
     transform="matrix(1,0,0,-1,0,595.276)"
     stroke-width="2"
     stroke-linecap="butt"
     stroke-miterlimit="4"
     stroke-linejoin="miter"
     fill="none"
     stroke="#000000"
     d="M206.771 80.992H330.078V111.298999H206.771Z"
     id="path169" />
  <path
     transform="matrix(1,0,0,-1,0,595.276)"
     stroke-width="2"
     stroke-linecap="butt"
     stroke-miterlimit="4"
     stroke-linejoin="miter"
     fill="none"
     stroke="#000000"
     d="M206.771 50.685H330.078V80.992008H206.771Z"
     id="path175" />
  <text
     xml:space="preserve"
     transform="matrix(1 0 -0 1 0 595.276)"
     font-size="36"
     font-family="XuntaSans"
     font-weight="bold"
     id="text183"><tspan
       y="-114.4934"
       x="444.3172"
       id="tspan181">7</tspan></text>
  <text
     xml:space="preserve"
     style="font-style:normal;font-variant:normal;font-weight:bold;font-stretch:normal;font-size:25px;line-height:normal;font-family:XuntaSans;-inkscape-font-specification:'Xunta Sans';font-variant-ligatures:normal;font-variant-position:normal;font-variant-caps:normal;font-variant-numeric:normal;font-variant-alternates:normal;font-variant-east-asian:normal;font-feature-settings:normal;font-variation-settings:normal;text-indent:0;text-align:start;text-decoration:none;text-decoration-line:none;text-decoration-style:solid;text-decoration-color:#000000;letter-spacing:normal;word-spacing:normal;text-transform:none;writing-mode:lr-tb;direction:ltr;text-orientation:mixed;dominant-baseline:auto;baseline-shift:baseline;text-anchor:start;white-space:normal;shape-padding:0;shape-margin:0;inline-size:0;opacity:1;vector-effect:none;fill:#ffffff;fill-opacity:1;stroke-width:1;stroke-linecap:butt;stroke-linejoin:miter;stroke-miterlimit:4;stroke-dasharray:none;stroke-dashoffset:0;stroke-opacity:1;stop-color:#000000;stop-opacity:1"
     x="394.36038"
     y="100.68729"
     id="text201"
     transform="translate(-256.36686,1.5531195)"><tspan
       sodipodi:role="line"
       id="tspan199"
       x="394.36038"
       y="100.68729"
       style="font-style:normal;font-variant:normal;font-weight:bold;font-stretch:normal;font-size:25px;line-height:normal;font-family:XuntaSans;font-variant-ligatures:normal;font-variant-position:normal;font-variant-caps:normal;font-variant-numeric:normal;font-variant-alternates:normal;font-variant-east-asian:normal;font-feature-settings:normal;font-variation-settings:normal;text-indent:0;text-align:start;text-decoration:none;text-decoration-line:none;text-decoration-style:solid;text-decoration-color:#000000;letter-spacing:normal;word-spacing:normal;text-transform:none;writing-mode:lr-tb;direction:ltr;text-orientation:mixed;dominant-baseline:auto;baseline-shift:baseline;text-anchor:start;white-space:normal;shape-padding:0;shape-margin:0;inline-size:0;vector-effect:none;fill:#ffffff;fill-opacity:1;stroke-width:1;stroke-linecap:butt;stroke-linejoin:miter;stroke-miterlimit:4;stroke-dasharray:none;stroke-dashoffset:0;stroke-opacity:1;stop-color:#000000;stop-opacity:1">Boas prácticas - 1</tspan></text>
  <text
     xml:space="preserve"
     style="font-style:normal;font-variant:normal;font-weight:bold;font-stretch:normal;font-size:16px;line-height:normal;font-family:XuntaSans;-inkscape-font-specification:'Xunta Sans';font-variant-ligatures:normal;font-variant-position:normal;font-variant-caps:normal;font-variant-numeric:normal;font-variant-alternates:normal;font-variant-east-asian:normal;font-feature-settings:normal;font-variation-settings:normal;text-indent:0;text-align:start;text-decoration:none;text-decoration-line:none;text-decoration-style:solid;text-decoration-color:#000000;letter-spacing:normal;word-spacing:normal;text-transform:none;writing-mode:lr-tb;direction:ltr;text-orientation:mixed;dominant-baseline:auto;baseline-shift:baseline;text-anchor:start;white-space:normal;shape-padding:0;shape-margin:0;inline-size:0;opacity:1;vector-effect:none;fill:#000000;fill-opacity:1;stroke-width:1;stroke-linecap:butt;stroke-linejoin:miter;stroke-miterlimit:4;stroke-dasharray:none;stroke-dashoffset:0;stroke-opacity:1;stop-color:#000000;stop-opacity:1"
     x="193.3217"
     y="167.83344"
     id="text228"
     transform="translate(-107.2514,5.9079124)"><tspan
       sodipodi:role="line"
       id="tspan226"
       x="193.3217"
       y="167.83344"
       style="font-style:normal;font-variant:normal;font-weight:bold;font-stretch:normal;font-size:16px;line-height:normal;font-family:XuntaSans;font-variant-ligatures:normal;font-variant-position:normal;font-variant-caps:normal;font-variant-numeric:normal;font-variant-alternates:normal;font-variant-east-asian:normal;font-feature-settings:normal;font-variation-settings:normal;text-indent:0;text-align:start;text-decoration:none;text-decoration-line:none;text-decoration-style:solid;text-decoration-color:#000000;letter-spacing:normal;word-spacing:normal;text-transform:none;writing-mode:lr-tb;direction:ltr;text-orientation:mixed;dominant-baseline:auto;baseline-shift:baseline;text-anchor:start;white-space:normal;shape-padding:0;shape-margin:0;inline-size:0;vector-effect:none;fill:#000000;fill-opacity:1;stroke-width:1;stroke-linecap:butt;stroke-linejoin:miter;stroke-miterlimit:4;stroke-dasharray:none;stroke-dashoffset:0;stroke-opacity:1;stop-color:#000000;stop-opacity:1">Título claro</tspan></text>
  <text
     xml:space="preserve"
     style="font-size:12px;line-height:1.25;font-family:'Xunta Sans';-inkscape-font-specification:'Xunta Sans';white-space:pre;inline-size:310.217;stroke-width:0.75"
     x="288.99893"
     y="129.65042"
     id="text251"
     transform="translate(-203.43175,59.139355)"><tspan
       x="288.99893"
       y="129.65042"><tspan
         style="stroke-width:0.75">Comeza cun título que indique claramente o propósito </tspan></tspan><tspan
       x="288.99893"
       y="144.65042"><tspan
         style="stroke-width:0.75">do documento. Por exemplo: «Licenzas de bibliotecas e </tspan></tspan><tspan
       x="288.99893"
       y="159.65042"><tspan
         style="stroke-width:0.75">compoñentes utilizados».</tspan></tspan></text>
  <text
     xml:space="preserve"
     style="font-style:normal;font-variant:normal;font-weight:bold;font-stretch:normal;font-size:16px;line-height:normal;font-family:XuntaSans;-inkscape-font-specification:'Xunta Sans';font-variant-ligatures:normal;font-variant-position:normal;font-variant-caps:normal;font-variant-numeric:normal;font-variant-alternates:normal;font-variant-east-asian:normal;font-feature-settings:normal;font-variation-settings:normal;text-indent:0;text-align:start;text-decoration:none;text-decoration-line:none;text-decoration-style:solid;text-decoration-color:#000000;letter-spacing:normal;word-spacing:normal;text-transform:none;writing-mode:lr-tb;direction:ltr;text-orientation:mixed;dominant-baseline:auto;baseline-shift:baseline;text-anchor:start;white-space:normal;shape-padding:0;shape-margin:0;inline-size:0;opacity:1;vector-effect:none;fill:#000000;fill-opacity:1;stroke-width:1;stroke-linecap:butt;stroke-linejoin:miter;stroke-miterlimit:4;stroke-dasharray:none;stroke-dashoffset:0;stroke-opacity:1;stop-color:#000000;stop-opacity:1"
     x="193.3217"
     y="167.83344"
     id="text255"
     transform="translate(-107.2514,100.40791)"><tspan
       sodipodi:role="line"
       id="tspan253"
       x="193.3217"
       y="167.83344"
       style="font-style:normal;font-variant:normal;font-weight:bold;font-stretch:normal;font-size:16px;line-height:normal;font-family:XuntaSans;font-variant-ligatures:normal;font-variant-position:normal;font-variant-caps:normal;font-variant-numeric:normal;font-variant-alternates:normal;font-variant-east-asian:normal;font-feature-settings:normal;font-variation-settings:normal;text-indent:0;text-align:start;text-decoration:none;text-decoration-line:none;text-decoration-style:solid;text-decoration-color:#000000;letter-spacing:normal;word-spacing:normal;text-transform:none;writing-mode:lr-tb;direction:ltr;text-orientation:mixed;dominant-baseline:auto;baseline-shift:baseline;text-anchor:start;white-space:normal;shape-padding:0;shape-margin:0;inline-size:0;vector-effect:none;fill:#000000;fill-opacity:1;stroke-width:1;stroke-linecap:butt;stroke-linejoin:miter;stroke-miterlimit:4;stroke-dasharray:none;stroke-dashoffset:0;stroke-opacity:1;stop-color:#000000;stop-opacity:1">Introdución breve</tspan></text>
  <text
     xml:space="preserve"
     style="font-size:12px;line-height:1.25;font-family:'Xunta Sans';-inkscape-font-specification:'Xunta Sans';white-space:pre;inline-size:310.217;stroke-width:0.75"
     x="288.99893"
     y="129.65042"
     id="text259"
     transform="translate(-203.43175,153.63935)"><tspan
       x="288.99893"
       y="129.65042"><tspan
         style="stroke-width:0.75">Explica porque é importante coñecer as licenzas das </tspan></tspan><tspan
       x="288.99893"
       y="144.65042"><tspan
         style="stroke-width:0.75">bibliotecas e compoñentes e o que se pode atopar na </tspan></tspan><tspan
       x="288.99893"
       y="159.65042"><tspan
         style="stroke-width:0.75">listaxe.</tspan></tspan></text>
  <text
     xml:space="preserve"
     style="font-style:normal;font-variant:normal;font-weight:bold;font-stretch:normal;font-size:16px;line-height:normal;font-family:XuntaSans;-inkscape-font-specification:'Xunta Sans';font-variant-ligatures:normal;font-variant-position:normal;font-variant-caps:normal;font-variant-numeric:normal;font-variant-alternates:normal;font-variant-east-asian:normal;font-feature-settings:normal;font-variation-settings:normal;text-indent:0;text-align:start;text-decoration:none;text-decoration-line:none;text-decoration-style:solid;text-decoration-color:#000000;letter-spacing:normal;word-spacing:normal;text-transform:none;writing-mode:lr-tb;direction:ltr;text-orientation:mixed;dominant-baseline:auto;baseline-shift:baseline;text-anchor:start;white-space:normal;shape-padding:0;shape-margin:0;inline-size:0;opacity:1;vector-effect:none;fill:#000000;fill-opacity:1;stroke-width:1;stroke-linecap:butt;stroke-linejoin:miter;stroke-miterlimit:4;stroke-dasharray:none;stroke-dashoffset:0;stroke-opacity:1;stop-color:#000000;stop-opacity:1"
     x="193.3217"
     y="167.83344"
     id="text263"
     transform="translate(-107.2514,187.40791)"><tspan
       sodipodi:role="line"
       id="tspan261"
       x="193.3217"
       y="167.83344"
       style="font-style:normal;font-variant:normal;font-weight:bold;font-stretch:normal;font-size:16px;line-height:normal;font-family:XuntaSans;font-variant-ligatures:normal;font-variant-position:normal;font-variant-caps:normal;font-variant-numeric:normal;font-variant-alternates:normal;font-variant-east-asian:normal;font-feature-settings:normal;font-variation-settings:normal;text-indent:0;text-align:start;text-decoration:none;text-decoration-line:none;text-decoration-style:solid;text-decoration-color:#000000;letter-spacing:normal;word-spacing:normal;text-transform:none;writing-mode:lr-tb;direction:ltr;text-orientation:mixed;dominant-baseline:auto;baseline-shift:baseline;text-anchor:start;white-space:normal;shape-padding:0;shape-margin:0;inline-size:0;vector-effect:none;fill:#000000;fill-opacity:1;stroke-width:1;stroke-linecap:butt;stroke-linejoin:miter;stroke-miterlimit:4;stroke-dasharray:none;stroke-dashoffset:0;stroke-opacity:1;stop-color:#000000;stop-opacity:1">Formato tabular</tspan></text>
  <text
     xml:space="preserve"
     style="font-size:12px;line-height:1.25;font-family:'Xunta Sans';-inkscape-font-specification:'Xunta Sans';white-space:pre;inline-size:303.101;stroke-width:0.75"
     x="288.99893"
     y="129.65042"
     id="text267"
     transform="translate(-203.43175,240.63935)"><tspan
       x="288.99893"
       y="129.65042"><tspan
         style="stroke-width:0.75">Utiliza formato tabular para organizar a información. </tspan></tspan><tspan
       x="288.99893"
       y="144.65042"><tspan
         style="stroke-width:0.75">As táboas son fáciles de ler e escanear.</tspan></tspan></text>
  <text
     xml:space="preserve"
     style="font-size:12px;line-height:1.25;font-family:'Xunta Sans';-inkscape-font-specification:'Xunta Sans';white-space:pre;inline-size:111.302;stroke-width:0.75"
     x="288.99893"
     y="129.65042"
     id="text271"
     transform="translate(-196.69632,304.77436)"><tspan
       x="288.99893"
       y="129.65042"><tspan
         style="stroke-width:0.75">Biblioteca / </tspan></tspan><tspan
       x="288.99893"
       y="144.65042"><tspan
         style="stroke-width:0.75">Compoñente</tspan></tspan></text>
  <text
     xml:space="preserve"
     style="font-size:12px;line-height:1.25;font-family:'Xunta Sans';-inkscape-font-specification:'Xunta Sans';white-space:pre;inline-size:111.302;stroke-width:0.75"
     x="288.99893"
     y="129.65042"
     id="text275"
     transform="translate(-196.24032,343.77436)"><tspan
       x="288.99893"
       y="129.65042"><tspan
         style="stroke-width:0.75">Versión</tspan></tspan></text>
  <text
     xml:space="preserve"
     style="font-size:12px;line-height:1.25;font-family:'Xunta Sans';-inkscape-font-specification:'Xunta Sans';white-space:pre;inline-size:111.302;stroke-width:0.75"
     x="288.99893"
     y="129.65042"
     id="text279"
     transform="translate(-197.17632,372.27436)"><tspan
       x="288.99893"
       y="129.65042"><tspan
         style="stroke-width:0.75">Licenza</tspan></tspan></text>
  <text
     xml:space="preserve"
     style="font-size:12px;line-height:1.25;font-family:'Xunta Sans';-inkscape-font-specification:'Xunta Sans';white-space:pre;inline-size:111.302;stroke-width:0.75"
     x="288.99893"
     y="129.65042"
     id="text283"
     transform="translate(-197.17632,403.77436)"><tspan
       x="288.99893"
       y="129.65042"><tspan
         style="stroke-width:0.75">Ligazón á licenza</tspan></tspan></text>
  <text
     xml:space="preserve"
     style="font-size:12px;line-height:1.25;font-family:'Xunta Sans';-inkscape-font-specification:'Xunta Sans';white-space:pre;inline-size:111.302;stroke-width:0.75"
     x="288.99893"
     y="129.65042"
     id="text287"
     transform="translate(-71.09232,403.77436)"><tspan
       x="288.99893"
       y="129.65042"><tspan
         style="stroke-width:0.75">https://...</tspan></tspan></text>
  <text
     xml:space="preserve"
     style="font-size:12px;line-height:1.25;font-family:'Xunta Sans';-inkscape-font-specification:'Xunta Sans';white-space:pre;inline-size:111.302;stroke-width:0.75"
     x="288.99893"
     y="129.65042"
     id="text291"
     transform="translate(-71.23632,372.27436)"><tspan
       x="288.99893"
       y="129.65042"><tspan
         style="stroke-width:0.75">MIT</tspan></tspan></text>
  <text
     xml:space="preserve"
     style="font-size:12px;line-height:1.25;font-family:'Xunta Sans';-inkscape-font-specification:'Xunta Sans';white-space:pre;inline-size:111.302;stroke-width:0.75"
     x="288.99893"
     y="129.65042"
     id="text295"
     transform="translate(-70.61232,343.77436)"><tspan
       x="288.99893"
       y="129.65042"><tspan
         style="stroke-width:0.75">3.5.1</tspan></tspan></text>
  <text
     xml:space="preserve"
     style="font-size:12px;line-height:1.25;font-family:'Xunta Sans';-inkscape-font-specification:'Xunta Sans';white-space:pre;inline-size:111.302;stroke-width:0.75"
     x="288.99893"
     y="129.65042"
     id="text299"
     transform="translate(-69.67632,313.77436)"><tspan
       x="288.99893"
       y="129.65042"><tspan
         style="stroke-width:0.75">jQuery</tspan></tspan></text>
  <text
     xml:space="preserve"
     style="font-style:normal;font-variant:normal;font-weight:bold;font-stretch:normal;font-size:16px;line-height:normal;font-family:XuntaSans;-inkscape-font-specification:'Xunta Sans';font-variant-ligatures:normal;font-variant-position:normal;font-variant-caps:normal;font-variant-numeric:normal;font-variant-alternates:normal;font-variant-east-asian:normal;font-feature-settings:normal;font-variation-settings:normal;text-indent:0;text-align:start;text-decoration:none;text-decoration-line:none;text-decoration-style:solid;text-decoration-color:#000000;letter-spacing:normal;word-spacing:normal;text-transform:none;writing-mode:lr-tb;direction:ltr;text-orientation:mixed;dominant-baseline:auto;baseline-shift:baseline;text-anchor:start;white-space:normal;shape-padding:0;shape-margin:0;inline-size:0;opacity:1;vector-effect:none;fill:#000000;fill-opacity:1;stroke-width:1;stroke-linecap:butt;stroke-linejoin:miter;stroke-miterlimit:4;stroke-dasharray:none;stroke-dashoffset:0;stroke-opacity:1;stop-color:#000000;stop-opacity:1"
     x="193.3217"
     y="167.83344"
     id="text303"
     transform="translate(280.8566,7.4079124)"><tspan
       sodipodi:role="line"
       id="tspan301"
       x="193.3217"
       y="167.83344"
       style="font-style:normal;font-variant:normal;font-weight:bold;font-stretch:normal;font-size:16px;line-height:normal;font-family:XuntaSans;font-variant-ligatures:normal;font-variant-position:normal;font-variant-caps:normal;font-variant-numeric:normal;font-variant-alternates:normal;font-variant-east-asian:normal;font-feature-settings:normal;font-variation-settings:normal;text-indent:0;text-align:start;text-decoration:none;text-decoration-line:none;text-decoration-style:solid;text-decoration-color:#000000;letter-spacing:normal;word-spacing:normal;text-transform:none;writing-mode:lr-tb;direction:ltr;text-orientation:mixed;dominant-baseline:auto;baseline-shift:baseline;text-anchor:start;white-space:normal;shape-padding:0;shape-margin:0;inline-size:0;vector-effect:none;fill:#000000;fill-opacity:1;stroke-width:1;stroke-linecap:butt;stroke-linejoin:miter;stroke-miterlimit:4;stroke-dasharray:none;stroke-dashoffset:0;stroke-opacity:1;stop-color:#000000;stop-opacity:1">Orde alfabética</tspan></text>
  <text
     xml:space="preserve"
     style="font-size:12px;line-height:1.25;font-family:'Xunta Sans';-inkscape-font-specification:'Xunta Sans';white-space:pre;inline-size:310.217;stroke-width:0.75"
     x="288.99893"
     y="129.65042"
     id="text307"
     transform="translate(185.28425,60.639355)"><tspan
       x="288.99893"
       y="129.65042"><tspan
         style="stroke-width:0.75">Lista as bibliotecas e compoñentes en orde alfabética. </tspan></tspan><tspan
       x="288.99893"
       y="144.65042"><tspan
         style="stroke-width:0.75">Isto fai que sexa máis doado atopar unha biblioteca, ou </tspan></tspan><tspan
       x="288.99893"
       y="159.65042"><tspan
         style="stroke-width:0.75">compoñente específico.</tspan></tspan></text>
  <text
     xml:space="preserve"
     style="font-style:normal;font-variant:normal;font-weight:bold;font-stretch:normal;font-size:16px;line-height:normal;font-family:XuntaSans;-inkscape-font-specification:'Xunta Sans';font-variant-ligatures:normal;font-variant-position:normal;font-variant-caps:normal;font-variant-numeric:normal;font-variant-alternates:normal;font-variant-east-asian:normal;font-feature-settings:normal;font-variation-settings:normal;text-indent:0;text-align:start;text-decoration:none;text-decoration-line:none;text-decoration-style:solid;text-decoration-color:#000000;letter-spacing:normal;word-spacing:normal;text-transform:none;writing-mode:lr-tb;direction:ltr;text-orientation:mixed;dominant-baseline:auto;baseline-shift:baseline;text-anchor:start;white-space:normal;shape-padding:0;shape-margin:0;inline-size:0;opacity:1;vector-effect:none;fill:#000000;fill-opacity:1;stroke-width:1;stroke-linecap:butt;stroke-linejoin:miter;stroke-miterlimit:4;stroke-dasharray:none;stroke-dashoffset:0;stroke-opacity:1;stop-color:#000000;stop-opacity:1"
     x="193.3217"
     y="167.83344"
     id="text311"
     transform="translate(280.2166,94.407912)"><tspan
       sodipodi:role="line"
       id="tspan309"
       x="193.3217"
       y="167.83344"
       style="font-style:normal;font-variant:normal;font-weight:bold;font-stretch:normal;font-size:16px;line-height:normal;font-family:XuntaSans;font-variant-ligatures:normal;font-variant-position:normal;font-variant-caps:normal;font-variant-numeric:normal;font-variant-alternates:normal;font-variant-east-asian:normal;font-feature-settings:normal;font-variation-settings:normal;text-indent:0;text-align:start;text-decoration:none;text-decoration-line:none;text-decoration-style:solid;text-decoration-color:#000000;letter-spacing:normal;word-spacing:normal;text-transform:none;writing-mode:lr-tb;direction:ltr;text-orientation:mixed;dominant-baseline:auto;baseline-shift:baseline;text-anchor:start;white-space:normal;shape-padding:0;shape-margin:0;inline-size:0;vector-effect:none;fill:#000000;fill-opacity:1;stroke-width:1;stroke-linecap:butt;stroke-linejoin:miter;stroke-miterlimit:4;stroke-dasharray:none;stroke-dashoffset:0;stroke-opacity:1;stop-color:#000000;stop-opacity:1">Ligazóns útiles</tspan></text>
  <text
     xml:space="preserve"
     style="font-size:12px;line-height:1.25;font-family:'Xunta Sans';-inkscape-font-specification:'Xunta Sans';white-space:pre;inline-size:310.217;stroke-width:0.75"
     x="288.99893"
     y="129.65042"
     id="text315"
     transform="translate(185.28425,147.63935)"><tspan
       x="288.99893"
       y="129.65042"><tspan
         style="stroke-width:0.75">Para cada biblioteca ou compoñente, proporciona unha </tspan></tspan><tspan
       x="288.99893"
       y="144.65042"><tspan
         style="stroke-width:0.75">ligazón á páxina oficial, ou ao repositorio onde se pode </tspan></tspan><tspan
       x="288.99893"
       y="159.65042"><tspan
         style="stroke-width:0.75">obter máis información e onde se pode ver a licenza na </tspan></tspan><tspan
       x="288.99893"
       y="174.65042"><tspan
         style="stroke-width:0.75">súa totalidade.</tspan></tspan></text>
  <text
     xml:space="preserve"
     style="font-style:normal;font-variant:normal;font-weight:bold;font-stretch:normal;font-size:16px;line-height:normal;font-family:XuntaSans;-inkscape-font-specification:'Xunta Sans';font-variant-ligatures:normal;font-variant-position:normal;font-variant-caps:normal;font-variant-numeric:normal;font-variant-alternates:normal;font-variant-east-asian:normal;font-feature-settings:normal;font-variation-settings:normal;text-indent:0;text-align:start;text-decoration:none;text-decoration-line:none;text-decoration-style:solid;text-decoration-color:#000000;letter-spacing:normal;word-spacing:normal;text-transform:none;writing-mode:lr-tb;direction:ltr;text-orientation:mixed;dominant-baseline:auto;baseline-shift:baseline;text-anchor:start;white-space:normal;shape-padding:0;shape-margin:0;inline-size:0;opacity:1;vector-effect:none;fill:#000000;fill-opacity:1;stroke-width:1;stroke-linecap:butt;stroke-linejoin:miter;stroke-miterlimit:4;stroke-dasharray:none;stroke-dashoffset:0;stroke-opacity:1;stop-color:#000000;stop-opacity:1"
     x="193.3217"
     y="167.83344"
     id="text319"
     transform="translate(281.2486,194.90791)"><tspan
       sodipodi:role="line"
       id="tspan317"
       x="193.3217"
       y="167.83344"
       style="font-style:normal;font-variant:normal;font-weight:bold;font-stretch:normal;font-size:16px;line-height:normal;font-family:XuntaSans;font-variant-ligatures:normal;font-variant-position:normal;font-variant-caps:normal;font-variant-numeric:normal;font-variant-alternates:normal;font-variant-east-asian:normal;font-feature-settings:normal;font-variation-settings:normal;text-indent:0;text-align:start;text-decoration:none;text-decoration-line:none;text-decoration-style:solid;text-decoration-color:#000000;letter-spacing:normal;word-spacing:normal;text-transform:none;writing-mode:lr-tb;direction:ltr;text-orientation:mixed;dominant-baseline:auto;baseline-shift:baseline;text-anchor:start;white-space:normal;shape-padding:0;shape-margin:0;inline-size:0;vector-effect:none;fill:#000000;fill-opacity:1;stroke-width:1;stroke-linecap:butt;stroke-linejoin:miter;stroke-miterlimit:4;stroke-dasharray:none;stroke-dashoffset:0;stroke-opacity:1;stop-color:#000000;stop-opacity:1">Breve descrición das licenzas máis comúns</tspan></text>
  <text
     xml:space="preserve"
     style="font-size:12px;line-height:1.25;font-family:'Xunta Sans';-inkscape-font-specification:'Xunta Sans';white-space:pre;inline-size:310.217;stroke-width:0.75"
     x="288.99893"
     y="129.65042"
     id="text323"
     transform="translate(185.33225,248.13935)"><tspan
       x="288.99893"
       y="129.65042"><tspan
         style="stroke-width:0.75">Se hai espazo e cres que será útil, podes incluír unha </tspan></tspan><tspan
       x="288.99893"
       y="144.65042"><tspan
         style="stroke-width:0.75">breve descrición das licenzas máis comúns na túa lista. </tspan></tspan><tspan
       x="288.99893"
       y="159.65042"><tspan
         style="stroke-width:0.75">Por exemplo, poderías explicar que a licenza MIT é unha </tspan></tspan><tspan
       x="288.99893"
       y="174.65042"><tspan
         style="stroke-width:0.75">licenza permisiva que permite a reutilización do código </tspan></tspan><tspan
       x="288.99893"
       y="189.65042"><tspan
         style="stroke-width:0.75">con poucas restricións.</tspan></tspan></text>
  <text
     xml:space="preserve"
     style="font-style:normal;font-variant:normal;font-weight:bold;font-stretch:normal;font-size:16px;line-height:normal;font-family:XuntaSans;-inkscape-font-specification:'Xunta Sans';font-variant-ligatures:normal;font-variant-position:normal;font-variant-caps:normal;font-variant-numeric:normal;font-variant-alternates:normal;font-variant-east-asian:normal;font-feature-settings:normal;font-variation-settings:normal;text-indent:0;text-align:start;text-decoration:none;text-decoration-line:none;text-decoration-style:solid;text-decoration-color:#000000;letter-spacing:normal;word-spacing:normal;text-transform:none;writing-mode:lr-tb;direction:ltr;text-orientation:mixed;dominant-baseline:auto;baseline-shift:baseline;text-anchor:start;white-space:normal;shape-padding:0;shape-margin:0;inline-size:0;opacity:1;vector-effect:none;fill:#000000;fill-opacity:1;stroke-width:1;stroke-linecap:butt;stroke-linejoin:miter;stroke-miterlimit:4;stroke-dasharray:none;stroke-dashoffset:0;stroke-opacity:1;stop-color:#000000;stop-opacity:1"
     x="193.3217"
     y="167.83344"
     id="text327"
     transform="translate(280.2166,307.40791)"><tspan
       sodipodi:role="line"
       id="tspan325"
       x="193.3217"
       y="167.83344"
       style="font-style:normal;font-variant:normal;font-weight:bold;font-stretch:normal;font-size:16px;line-height:normal;font-family:XuntaSans;font-variant-ligatures:normal;font-variant-position:normal;font-variant-caps:normal;font-variant-numeric:normal;font-variant-alternates:normal;font-variant-east-asian:normal;font-feature-settings:normal;font-variation-settings:normal;text-indent:0;text-align:start;text-decoration:none;text-decoration-line:none;text-decoration-style:solid;text-decoration-color:#000000;letter-spacing:normal;word-spacing:normal;text-transform:none;writing-mode:lr-tb;direction:ltr;text-orientation:mixed;dominant-baseline:auto;baseline-shift:baseline;text-anchor:start;white-space:normal;shape-padding:0;shape-margin:0;inline-size:0;vector-effect:none;fill:#000000;fill-opacity:1;stroke-width:1;stroke-linecap:butt;stroke-linejoin:miter;stroke-miterlimit:4;stroke-dasharray:none;stroke-dashoffset:0;stroke-opacity:1;stop-color:#000000;stop-opacity:1">Data de actualización</tspan></text>
  <text
     xml:space="preserve"
     style="font-size:12px;line-height:1.25;font-family:'Xunta Sans';-inkscape-font-specification:'Xunta Sans';white-space:pre;inline-size:310.217;stroke-width:0.75"
     x="288.99893"
     y="129.65042"
     id="text331"
     transform="translate(185.06825,360.63935)"><tspan
       x="288.99893"
       y="129.65042"><tspan
         style="stroke-width:0.75">Indica cando foi a última vez que se actualizou a listaxe. </tspan></tspan><tspan
       x="288.99893"
       y="144.65042"><tspan
         style="stroke-width:0.75">Isto axuda aos lectores para saber que tan actual é a </tspan></tspan><tspan
       x="288.99893"
       y="159.65042"><tspan
         style="stroke-width:0.75">información.</tspan></tspan></text>
</svg>
