<?xml version="1.0" encoding="UTF-8" standalone="no"?>
<svg
   xmlns:dc="http://purl.org/dc/elements/1.1/"
   xmlns:cc="http://creativecommons.org/ns#"
   xmlns:rdf="http://www.w3.org/1999/02/22-rdf-syntax-ns#"
   xmlns:svg="http://www.w3.org/2000/svg"
   xmlns="http://www.w3.org/2000/svg"
   xmlns:sodipodi="http://sodipodi.sourceforge.net/DTD/sodipodi-0.dtd"
   xmlns:inkscape="http://www.inkscape.org/namespaces/inkscape"
   version="1.1"
   width="841.89pt"
   height="595.276pt"
   viewBox="0 0 841.89 595.276"
   id="svg95"
   sodipodi:docname="16_Guia_Liberacion_Traballos_Universitarios.svg"
   inkscape:version="1.0.2 (e86c870879, 2021-01-15)">
  <text
     xml:space="preserve"
     font-size="36px"
     font-family="XuntaSans"
     font-weight="bold"
     id="text69"
     x="391.41214"
     y="407.14999"><tspan
       y="183.33771"
       x="430.76904 447.07706"
       id="tspan67">10</tspan></text>
  <metadata
     id="metadata99">
    <rdf:RDF>
      <cc:Work
         rdf:about="">
        <dc:format>image/svg+xml</dc:format>
        <dc:type
           rdf:resource="http://purl.org/dc/dcmitype/StillImage" />
      </cc:Work>
    </rdf:RDF>
  </metadata>
  <sodipodi:namedview
     pagecolor="#ffffff"
     bordercolor="#666666"
     borderopacity="1"
     objecttolerance="10"
     gridtolerance="10"
     guidetolerance="10"
     inkscape:pageopacity="0"
     inkscape:pageshadow="2"
     inkscape:window-width="1920"
     inkscape:window-height="1043"
     id="namedview97"
     showgrid="false"
     inkscape:zoom="1.1062391"
     inkscape:cx="560.86455"
     inkscape:cy="371.04448"
     inkscape:window-x="0"
     inkscape:window-y="0"
     inkscape:window-maximized="1"
     inkscape:current-layer="svg95"
     inkscape:document-rotation="0" />
  <defs
     id="defs5">
    <clipPath
       id="clip_0">
      <path
         transform="matrix(1,0,0,-1,0,595.276)"
         d="M0 0H841.89V595.276H0Z"
         id="path2" />
    </clipPath>
  </defs>
  <text
     xml:space="preserve"
     transform="matrix(1 0 -0 1 0 595.276)"
     font-size="12"
     font-family="XuntaSans"
     id="text9"><tspan
       y="-12.4359"
       x="415.029 419.973"
       id="tspan7">16</tspan></text>
  <g
     clip-path="url(#clip_0)"
     id="g15">
    <text
       xml:space="preserve"
       transform="matrix(1 0 -0 1 0 595.276)"
       font-size="11"
       font-family="XuntaSans"
       id="text13"><tspan
         y="-559.2756"
         x="562.4851 570.4821 576.6641 579.34817 585.17819 588.1042 594.4402 600.2702 604.6471 610.4771 613.40316 619.23318 622.1592 625.5252 628.3192 634.7432 640.6062 644.9842 650.8142 656.0612 658.8552 665.08126 671.3732 674.29928 680.63528 686.4982 689.42428 694.13229 698.50918 704.3392 710.6752 716.5052 719.6952 723.0612 729.28726 734.5122 737.43826 743.62026 749.91226 752.70626 758.25027 764.1132 768.6012 773.8262 776.6202 781.3282 787.1582 791.6462 794.4402 800.6662"
         id="tspan11">Guía para a liberación de traballos universitarios</tspan></text>
  </g>
  <path
     transform="matrix(1,0,0,-1,401.4607,64.63037)"
     d="M0 0V-56.693H-318.997V-48.679H-314.784V-40.476H-309.228V-33.359H-300.395V-25.34H-292.526V-16.763H-284.133V-7.997H-275.445V0Z"
     fill="#0a7cba"
     id="path17" />
  <path
     transform="matrix(1,0,0,-1,121.8406,52.474428)"
     d="M0 0V-16.474H-8.044V-24.422H-16.13V-32.365H-23.845V-40.011H-31.888V-47.663H-37.404V-54.392H-48.436V-47.663H-53.952V-40.011H-61.996V-32.365H-69.711V-24.422H-77.797V-16.474H-85.841V0H-78.078V8.234H-70.04V16.474H-53.952V8.234H-46.47V0H-39.365V8.234H-31.888V16.474H-15.801V8.234H-7.763V0Z"
     fill="#0a7cba"
     id="path19" />
  <path
     transform="matrix(1,0,0,-1,0,595.276)"
     d="M73.404 495.141H78.919V495.951H73.404Z"
     fill="#0a7cba"
     id="path21" />
  <path
     d="M 398.976,121.323 H 806.67001 V 64.63 H 398.976 Z"
     fill="#0a7cba"
     id="path27"
     style="stroke-width:1.14596" />
  <text
     xml:space="preserve"
     transform="matrix(1 0 -0 1 0 595.276)"
     font-size="36"
     font-family="XuntaSans"
     font-weight="bold"
     id="text35"><tspan
       y="-411.9383"
       x="56.3126"
       id="tspan33">8</tspan></text>
  <text
     xml:space="preserve"
     transform="matrix(1 0 -0 1 0 595.276)"
     font-size="36"
     font-family="XuntaSans"
     font-weight="bold"
     id="text53"><tspan
       y="-311.4501"
       x="57.4288"
       id="tspan51">9</tspan></text>
  <text
     xml:space="preserve"
     style="font-style:normal;font-variant:normal;font-weight:bold;font-stretch:normal;font-size:25px;line-height:normal;font-family:XuntaSans;-inkscape-font-specification:'Xunta Sans';font-variant-ligatures:normal;font-variant-position:normal;font-variant-caps:normal;font-variant-numeric:normal;font-variant-alternates:normal;font-variant-east-asian:normal;font-feature-settings:normal;font-variation-settings:normal;text-indent:0;text-align:start;text-decoration:none;text-decoration-line:none;text-decoration-style:solid;text-decoration-color:#000000;letter-spacing:normal;word-spacing:normal;text-transform:none;writing-mode:lr-tb;direction:ltr;text-orientation:mixed;dominant-baseline:auto;baseline-shift:baseline;text-anchor:start;white-space:normal;shape-padding:0;shape-margin:0;inline-size:0;vector-effect:none;fill:#ffffff;fill-opacity:1;stroke-width:1;stroke-linecap:butt;stroke-linejoin:miter;stroke-miterlimit:4;stroke-dasharray:none;stroke-dashoffset:0;stroke-opacity:1;stop-color:#000000"
     x="394.36038"
     y="100.68729"
     id="text201"
     transform="translate(-259.42233,-0.57237784)"><tspan
       sodipodi:role="line"
       id="tspan199"
       x="394.36038"
       y="100.68729"
       style="font-style:normal;font-variant:normal;font-weight:bold;font-stretch:normal;font-size:25px;line-height:normal;font-family:XuntaSans;font-variant-ligatures:normal;font-variant-position:normal;font-variant-caps:normal;font-variant-numeric:normal;font-variant-alternates:normal;font-variant-east-asian:normal;font-feature-settings:normal;font-variation-settings:normal;text-indent:0;text-align:start;text-decoration:none;text-decoration-line:none;text-decoration-style:solid;text-decoration-color:#000000;letter-spacing:normal;word-spacing:normal;text-transform:none;writing-mode:lr-tb;direction:ltr;text-orientation:mixed;dominant-baseline:auto;baseline-shift:baseline;text-anchor:start;white-space:normal;shape-padding:0;shape-margin:0;inline-size:0;vector-effect:none;fill:#ffffff;fill-opacity:1;stroke-width:1;stroke-linecap:butt;stroke-linejoin:miter;stroke-miterlimit:4;stroke-dasharray:none;stroke-dashoffset:0;stroke-opacity:1;stop-color:#000000;stop-opacity:1">Boas prácticas - 1</tspan></text>
  <text
     xml:space="preserve"
     style="font-style:normal;font-variant:normal;font-weight:bold;font-stretch:normal;font-size:16px;line-height:normal;font-family:XuntaSans;-inkscape-font-specification:'Xunta Sans';font-variant-ligatures:normal;font-variant-position:normal;font-variant-caps:normal;font-variant-numeric:normal;font-variant-alternates:normal;font-variant-east-asian:normal;font-feature-settings:normal;font-variation-settings:normal;text-indent:0;text-align:start;text-decoration:none;text-decoration-line:none;text-decoration-style:solid;text-decoration-color:#000000;letter-spacing:normal;word-spacing:normal;text-transform:none;writing-mode:lr-tb;direction:ltr;text-orientation:mixed;dominant-baseline:auto;baseline-shift:baseline;text-anchor:start;white-space:normal;shape-padding:0;shape-margin:0;inline-size:0;vector-effect:none;fill:#000000;fill-opacity:1;stroke-width:1;stroke-linecap:butt;stroke-linejoin:miter;stroke-miterlimit:4;stroke-dasharray:none;stroke-dashoffset:0;stroke-opacity:1;stop-color:#000000"
     x="193.3217"
     y="167.83344"
     id="text303"
     transform="translate(-108.22753,7.3034292)"><tspan
       sodipodi:role="line"
       id="tspan301"
       x="193.3217"
       y="167.83344"
       style="font-style:normal;font-variant:normal;font-weight:bold;font-stretch:normal;font-size:16px;line-height:normal;font-family:XuntaSans;font-variant-ligatures:normal;font-variant-position:normal;font-variant-caps:normal;font-variant-numeric:normal;font-variant-alternates:normal;font-variant-east-asian:normal;font-feature-settings:normal;font-variation-settings:normal;text-indent:0;text-align:start;text-decoration:none;text-decoration-line:none;text-decoration-style:solid;text-decoration-color:#000000;letter-spacing:normal;word-spacing:normal;text-transform:none;writing-mode:lr-tb;direction:ltr;text-orientation:mixed;dominant-baseline:auto;baseline-shift:baseline;text-anchor:start;white-space:normal;shape-padding:0;shape-margin:0;inline-size:0;vector-effect:none;fill:#000000;fill-opacity:1;stroke-width:1;stroke-linecap:butt;stroke-linejoin:miter;stroke-miterlimit:4;stroke-dasharray:none;stroke-dashoffset:0;stroke-opacity:1;stop-color:#000000;stop-opacity:1">Instrucións para actualizar</tspan></text>
  <text
     xml:space="preserve"
     style="font-size:12px;line-height:1.25;font-family:'Xunta Sans';-inkscape-font-specification:'Xunta Sans';white-space:pre;inline-size:310.217;stroke-width:0.75"
     x="288.99893"
     y="129.65042"
     id="text307"
     transform="translate(-204.40788,63.534872)"><tspan
       x="288.99893"
       y="129.65042"><tspan>Se esta listaxe será mantido por un equipo, ou por </tspan></tspan><tspan
       x="288.99893"
       y="144.65042"><tspan>contribuíntes, proporciona instrucións sobre como </tspan></tspan><tspan
       x="288.99893"
       y="159.65042"><tspan>engadir novas bibliotecas ou compoñentes á listaxe, ou </tspan></tspan><tspan
       x="288.99893"
       y="174.65042"><tspan>como actualizar a información existente.</tspan></tspan></text>
  <text
     xml:space="preserve"
     style="font-style:normal;font-variant:normal;font-weight:bold;font-stretch:normal;font-size:16px;line-height:normal;font-family:XuntaSans;-inkscape-font-specification:'Xunta Sans';font-variant-ligatures:normal;font-variant-position:normal;font-variant-caps:normal;font-variant-numeric:normal;font-variant-alternates:normal;font-variant-east-asian:normal;font-feature-settings:normal;font-variation-settings:normal;text-indent:0;text-align:start;text-decoration:none;text-decoration-line:none;text-decoration-style:solid;text-decoration-color:#000000;letter-spacing:normal;word-spacing:normal;text-transform:none;writing-mode:lr-tb;direction:ltr;text-orientation:mixed;dominant-baseline:auto;baseline-shift:baseline;text-anchor:start;white-space:normal;shape-padding:0;shape-margin:0;inline-size:0;vector-effect:none;fill:#000000;fill-opacity:1;stroke-width:1;stroke-linecap:butt;stroke-linejoin:miter;stroke-miterlimit:4;stroke-dasharray:none;stroke-dashoffset:0;stroke-opacity:1;stop-color:#000000"
     x="193.3217"
     y="167.83344"
     id="text154"
     transform="translate(-108.22753,109.30343)"><tspan
       sodipodi:role="line"
       id="tspan152"
       x="193.3217"
       y="167.83344"
       style="font-style:normal;font-variant:normal;font-weight:bold;font-stretch:normal;font-size:16px;line-height:normal;font-family:XuntaSans;font-variant-ligatures:normal;font-variant-position:normal;font-variant-caps:normal;font-variant-numeric:normal;font-variant-alternates:normal;font-variant-east-asian:normal;font-feature-settings:normal;font-variation-settings:normal;text-indent:0;text-align:start;text-decoration:none;text-decoration-line:none;text-decoration-style:solid;text-decoration-color:#000000;letter-spacing:normal;word-spacing:normal;text-transform:none;writing-mode:lr-tb;direction:ltr;text-orientation:mixed;dominant-baseline:auto;baseline-shift:baseline;text-anchor:start;white-space:normal;shape-padding:0;shape-margin:0;inline-size:0;vector-effect:none;fill:#000000;fill-opacity:1;stroke-width:1;stroke-linecap:butt;stroke-linejoin:miter;stroke-miterlimit:4;stroke-dasharray:none;stroke-dashoffset:0;stroke-opacity:1;stop-color:#000000;stop-opacity:1">Introdución breve</tspan></text>
  <text
     xml:space="preserve"
     style="font-size:12px;line-height:1.25;font-family:'Xunta Sans';-inkscape-font-specification:'Xunta Sans';white-space:pre;inline-size:310.217;stroke-width:0.75"
     x="288.99893"
     y="129.65042"
     id="text156"
     transform="translate(-204.40788,165.53487)"><tspan
       x="288.99893"
       y="129.65042"><tspan>Finaliza cunha breve conclusión e proporciona detalles </tspan></tspan><tspan
       x="288.99893"
       y="144.65042"><tspan>de contacto para calquera pregunta ou aclaración sobre </tspan></tspan><tspan
       x="288.99893"
       y="159.65042"><tspan>as licenzas.</tspan></tspan></text>
  <text
     xml:space="preserve"
     style="font-style:normal;font-variant:normal;font-weight:bold;font-stretch:normal;font-size:16px;line-height:normal;font-family:XuntaSans;-inkscape-font-specification:'Xunta Sans';font-variant-ligatures:normal;font-variant-position:normal;font-variant-caps:normal;font-variant-numeric:normal;font-variant-alternates:normal;font-variant-east-asian:normal;font-feature-settings:normal;font-variation-settings:normal;text-indent:0;text-align:start;text-decoration:none;text-decoration-line:none;text-decoration-style:solid;text-decoration-color:#000000;letter-spacing:normal;word-spacing:normal;text-transform:none;writing-mode:lr-tb;direction:ltr;text-orientation:mixed;dominant-baseline:auto;baseline-shift:baseline;text-anchor:start;white-space:normal;shape-padding:0;shape-margin:0;inline-size:0;vector-effect:none;fill:#000000;fill-opacity:1;stroke-width:1;stroke-linecap:butt;stroke-linejoin:miter;stroke-miterlimit:4;stroke-dasharray:none;stroke-dashoffset:0;stroke-opacity:1;stop-color:#000000"
     x="193.3217"
     y="167.83344"
     id="text184"
     transform="translate(283.06348,7.7396045)"><tspan
       sodipodi:role="line"
       x="193.3217"
       y="167.83344"
       style="font-style:normal;font-variant:normal;font-weight:bold;font-stretch:normal;font-size:16px;line-height:normal;font-family:XuntaSans;font-variant-ligatures:normal;font-variant-position:normal;font-variant-caps:normal;font-variant-numeric:normal;font-variant-alternates:normal;font-variant-east-asian:normal;font-feature-settings:normal;font-variation-settings:normal;text-indent:0;text-align:start;text-decoration:none;text-decoration-line:none;text-decoration-style:solid;text-decoration-color:#000000;letter-spacing:normal;word-spacing:normal;text-transform:none;writing-mode:lr-tb;direction:ltr;text-orientation:mixed;dominant-baseline:auto;baseline-shift:baseline;text-anchor:start;white-space:normal;shape-padding:0;shape-margin:0;inline-size:0;vector-effect:none;fill:#000000;fill-opacity:1;stroke-width:1;stroke-linecap:butt;stroke-linejoin:miter;stroke-miterlimit:4;stroke-dasharray:none;stroke-dashoffset:0;stroke-opacity:1;stop-color:#000000;stop-opacity:1"
       id="tspan188">Deseño do formato tabular</tspan></text>
  <text
     xml:space="preserve"
     style="font-size:12px;line-height:1.25;font-family:'Xunta Sans';-inkscape-font-specification:'Xunta Sans';white-space:pre;inline-size:310.217;stroke-width:0.75"
     x="288.99893"
     y="129.65042"
     id="text186"
     transform="translate(186.88313,63.971045)"><tspan
       x="288.99893"
       y="129.65042"><tspan>Se estás a traballar nun proxecto grande con moitas </tspan></tspan><tspan
       x="288.99893"
       y="144.65042"><tspan>dependencias, considera usar ferramentas que xeren </tspan></tspan><tspan
       x="288.99893"
       y="159.65042"><tspan>automaticamente unha listaxe das licenzas das túas </tspan></tspan><tspan
       x="288.99893"
       y="174.65042"><tspan>dependencias. Hai varias ferramentas dispoñibles, </tspan></tspan><tspan
       x="288.99893"
       y="189.65042"><tspan>dependendo do xestor de paquetes que esteas a utilizar.
</tspan></tspan><tspan
       x="288.99893"
       y="204.65042"><tspan>
</tspan></tspan><tspan
       x="288.99893"
       y="219.65042"><tspan>Ao presentar a información deste xeito, estarás a </tspan></tspan><tspan
       x="288.99893"
       y="234.65042"><tspan>proporcionar un recurso valioso e doado de entender </tspan></tspan><tspan
       x="288.99893"
       y="249.65042"><tspan>para os usuarios e desenvolvedores do teu proxecto, </tspan></tspan><tspan
       x="288.99893"
       y="264.65042"><tspan>asegurando que as licenzas de todas as bibliotecas e </tspan></tspan><tspan
       x="288.99893"
       y="279.65041"><tspan>compoñentes sexan comprendidas e respectadas nos </tspan></tspan><tspan
       x="288.99893"
       y="294.65041"><tspan>seus termos.</tspan></tspan></text>
</svg>
