<?xml version="1.0" encoding="UTF-8" standalone="no"?>
<svg
   xmlns:dc="http://purl.org/dc/elements/1.1/"
   xmlns:cc="http://creativecommons.org/ns#"
   xmlns:rdf="http://www.w3.org/1999/02/22-rdf-syntax-ns#"
   xmlns:svg="http://www.w3.org/2000/svg"
   xmlns="http://www.w3.org/2000/svg"
   xmlns:sodipodi="http://sodipodi.sourceforge.net/DTD/sodipodi-0.dtd"
   xmlns:inkscape="http://www.inkscape.org/namespaces/inkscape"
   version="1.1"
   width="841.89pt"
   height="595.276pt"
   viewBox="0 0 841.89 595.276"
   id="svg97"
   sodipodi:docname="18_Guia_Liberacion_Traballos_Universitarios.svg"
   inkscape:version="1.0.2 (e86c870879, 2021-01-15)">
  <metadata
     id="metadata101">
    <rdf:RDF>
      <cc:Work
         rdf:about="">
        <dc:format>image/svg+xml</dc:format>
        <dc:type
           rdf:resource="http://purl.org/dc/dcmitype/StillImage" />
      </cc:Work>
    </rdf:RDF>
  </metadata>
  <sodipodi:namedview
     pagecolor="#ffffff"
     bordercolor="#666666"
     borderopacity="1"
     objecttolerance="10"
     gridtolerance="10"
     guidetolerance="10"
     inkscape:pageopacity="0"
     inkscape:pageshadow="2"
     inkscape:window-width="1920"
     inkscape:window-height="1016"
     id="namedview99"
     showgrid="false"
     inkscape:zoom="1.0784913"
     inkscape:cx="760.79607"
     inkscape:cy="396.85067"
     inkscape:window-x="1920"
     inkscape:window-y="27"
     inkscape:window-maximized="1"
     inkscape:current-layer="svg97" />
  <defs
     id="defs5">
    <clipPath
       id="clip_0">
      <path
         transform="matrix(1,0,0,-1,0,595.276)"
         d="M0 0H841.89V595.276H0Z"
         id="path2" />
    </clipPath>
    <rect
       x="87.94532"
       y="228.66032"
       width="320.63766"
       height="61.821577"
       id="rect206" />
    <rect
       x="87.94532"
       y="228.66032"
       width="318.85226"
       height="31.975592"
       id="rect188" />
    <rect
       x="87.94532"
       y="228.66032"
       width="314.36754"
       height="35.064704"
       id="rect156" />
    <rect
       x="87.94532"
       y="228.66032"
       width="320.63766"
       height="61.821577"
       id="rect164" />
    <rect
       x="87.94532"
       y="228.66032"
       width="320.63766"
       height="61.821577"
       id="rect172" />
  </defs>
  <text
     xml:space="preserve"
     transform="matrix(1 0 -0 1 0 595.276)"
     font-size="12"
     font-family="XuntaSans"
     id="text9"><tspan
       y="-12.4359"
       x="414.909 419.853"
       id="tspan7">18</tspan></text>
  <g
     clip-path="url(#clip_0)"
     id="g15">
    <text
       xml:space="preserve"
       transform="matrix(1 0 -0 1 0 595.276)"
       font-size="11"
       font-family="XuntaSans"
       id="text13"><tspan
         y="-559.2756"
         x="562.4851 570.4821 576.6641 579.34817 585.17819 588.1042 594.4402 600.2702 604.6471 610.4771 613.40316 619.23318 622.1592 625.5252 628.3192 634.7432 640.6062 644.9842 650.8142 656.0612 658.8552 665.08126 671.3732 674.29928 680.63528 686.4982 689.42428 694.13229 698.50918 704.3392 710.6752 716.5052 719.6952 723.0612 729.28726 734.5122 737.43826 743.62026 749.91226 752.70626 758.25027 764.1132 768.6012 773.8262 776.6202 781.3282 787.1582 791.6462 794.4402 800.6662"
         id="tspan11">Guía para a liberación de traballos universitarios</tspan></text>
  </g>
  <path
     transform="matrix(1,0,0,-1,401.4607,64.63037)"
     d="M0 0V-56.693H-318.997V-48.679H-314.784V-40.476H-309.228V-33.359H-300.395V-25.34H-292.526V-16.763H-284.133V-7.997H-275.445V0Z"
     fill="#0a7cba"
     id="path17" />
  <path
     d="M 398.976,121.323 H 809.22599 V 64.63 H 398.976 Z"
     fill="#0a7cba"
     id="path19"
     style="stroke-width:1.14955" />
  <path
     transform="matrix(1,0,0,-1,121.8406,52.474428)"
     d="M0 0V-16.474H-8.044V-24.422H-16.13V-32.365H-23.845V-40.011H-31.888V-47.663H-37.404V-54.392H-48.436V-47.663H-53.952V-40.011H-61.996V-32.365H-69.711V-24.422H-77.797V-16.474H-85.841V0H-78.078V8.234H-70.04V16.474H-53.952V8.234H-46.47V0H-39.365V8.234H-31.888V16.474H-15.801V8.234H-7.763V0Z"
     fill="#0a7cba"
     id="path21" />
  <path
     transform="matrix(1,0,0,-1,0,595.276)"
     d="M73.404 495.141H78.919V495.951H73.404Z"
     fill="#0a7cba"
     id="path23" />
  <text
     xml:space="preserve"
     transform="matrix(1 0 -0 1 0 595.276)"
     font-size="36"
     font-family="XuntaSans"
     font-weight="bold"
     id="text35"><tspan
       y="-371.3024"
       x="57.4288"
       id="tspan33">9</tspan></text>
  <text
     xml:space="preserve"
     transform="matrix(1 0 -0 1 0 595.276)"
     font-size="36"
     font-family="XuntaSans"
     font-weight="bold"
     id="text53"><tspan
       y="-371.3024"
       x="439.1713 455.4793"
       id="tspan51">11</tspan></text>
  <text
     xml:space="preserve"
     transform="matrix(1 0 -0 1 0 595.276)"
     font-size="36"
     font-family="XuntaSans"
     font-weight="bold"
     id="text71"><tspan
       y="-260.2848"
       x="43.538 59.846"
       id="tspan69">10</tspan></text>
  <text
     xml:space="preserve"
     transform="matrix(1 0 -0 1 0 595.276)"
     font-size="36"
     font-family="XuntaSans"
     font-weight="bold"
     id="text89"><tspan
       y="-260.2848"
       x="433.9245 450.2325"
       id="tspan87">12</tspan></text>
  <text
     xml:space="preserve"
     style="font-style:normal;font-variant:normal;font-weight:bold;font-stretch:normal;font-size:25px;line-height:normal;font-family:XuntaSans;-inkscape-font-specification:'Xunta Sans';font-variant-ligatures:normal;font-variant-position:normal;font-variant-caps:normal;font-variant-numeric:normal;font-variant-alternates:normal;font-variant-east-asian:normal;font-feature-settings:normal;font-variation-settings:normal;text-indent:0;text-align:start;text-decoration:none;text-decoration-line:none;text-decoration-style:solid;text-decoration-color:#000000;letter-spacing:normal;word-spacing:normal;text-transform:none;writing-mode:lr-tb;direction:ltr;text-orientation:mixed;dominant-baseline:auto;baseline-shift:baseline;text-anchor:start;white-space:normal;shape-padding:0;shape-margin:0;inline-size:0;vector-effect:none;fill:#ffffff;fill-opacity:1;stroke-width:1;stroke-linecap:butt;stroke-linejoin:miter;stroke-miterlimit:4;stroke-dasharray:none;stroke-dashoffset:0;stroke-opacity:1;stop-color:#000000"
     x="394.36038"
     y="100.68729"
     id="text201"
     transform="translate(-257.73435,2.0301042)"><tspan
       sodipodi:role="line"
       id="tspan199"
       x="394.36038"
       y="100.68729"
       style="font-style:normal;font-variant:normal;font-weight:bold;font-stretch:normal;font-size:25px;line-height:normal;font-family:XuntaSans;font-variant-ligatures:normal;font-variant-position:normal;font-variant-caps:normal;font-variant-numeric:normal;font-variant-alternates:normal;font-variant-east-asian:normal;font-feature-settings:normal;font-variation-settings:normal;text-indent:0;text-align:start;text-decoration:none;text-decoration-line:none;text-decoration-style:solid;text-decoration-color:#000000;letter-spacing:normal;word-spacing:normal;text-transform:none;writing-mode:lr-tb;direction:ltr;text-orientation:mixed;dominant-baseline:auto;baseline-shift:baseline;text-anchor:start;white-space:normal;shape-padding:0;shape-margin:0;inline-size:0;vector-effect:none;fill:#ffffff;fill-opacity:1;stroke-width:1;stroke-linecap:butt;stroke-linejoin:miter;stroke-miterlimit:4;stroke-dasharray:none;stroke-dashoffset:0;stroke-opacity:1;stop-color:#000000;stop-opacity:1">Boas prácticas - 2</tspan></text>
  <text
     xml:space="preserve"
     style="font-style:normal;font-variant:normal;font-weight:bold;font-stretch:normal;font-size:16px;line-height:normal;font-family:XuntaSans;-inkscape-font-specification:'Xunta Sans';font-variant-ligatures:normal;font-variant-position:normal;font-variant-caps:normal;font-variant-numeric:normal;font-variant-alternates:normal;font-variant-east-asian:normal;font-feature-settings:normal;font-variation-settings:normal;text-indent:0;text-align:start;text-decoration:none;text-decoration-line:none;text-decoration-style:solid;text-decoration-color:#000000;letter-spacing:normal;word-spacing:normal;text-transform:none;writing-mode:lr-tb;direction:ltr;text-orientation:mixed;dominant-baseline:auto;baseline-shift:baseline;text-anchor:start;white-space:normal;shape-padding:0;shape-margin:0;inline-size:0;vector-effect:none;fill:#000000;fill-opacity:1;stroke-width:1;stroke-linecap:butt;stroke-linejoin:miter;stroke-miterlimit:4;stroke-dasharray:none;stroke-dashoffset:0;stroke-opacity:1;stop-color:#000000"
     x="100.96111"
     y="227.68964"
     id="text183"
     transform="translate(-16.729864,-13.377277)"><tspan
       sodipodi:role="line"
       id="tspan181"
       x="100.96111"
       y="227.68964"
       style="font-style:normal;font-variant:normal;font-weight:bold;font-stretch:normal;font-size:16px;line-height:normal;font-family:XuntaSans;font-variant-ligatures:normal;font-variant-position:normal;font-variant-caps:normal;font-variant-numeric:normal;font-variant-alternates:normal;font-variant-east-asian:normal;font-feature-settings:normal;font-variation-settings:normal;text-indent:0;text-align:start;text-decoration:none;text-decoration-line:none;text-decoration-style:solid;text-decoration-color:#000000;letter-spacing:normal;word-spacing:normal;text-transform:none;writing-mode:lr-tb;direction:ltr;text-orientation:mixed;dominant-baseline:auto;baseline-shift:baseline;text-anchor:start;white-space:normal;shape-padding:0;shape-margin:0;inline-size:0;vector-effect:none;fill:#000000;fill-opacity:1;stroke-width:1;stroke-linecap:butt;stroke-linejoin:miter;stroke-miterlimit:4;stroke-dasharray:none;stroke-dashoffset:0;stroke-opacity:1;stop-color:#000000;stop-opacity:1">Contacto / Soporte</tspan></text>
  <text
     xml:space="preserve"
     id="text204"
     style="font-size:12px;line-height:1.25;font-family:'Xunta Sans';-inkscape-font-specification:'Xunta Sans';white-space:pre;shape-inside:url(#rect206);"
     transform="translate(-4.6500638,-5.8332423)"><tspan
       x="87.945312"
       y="239.30416"><tspan
         style="shape-inside:url(#rect206)">Información sobre como obter axuda ou contactar co </tspan></tspan><tspan
       x="87.945312"
       y="254.30416"><tspan
         style="shape-inside:url(#rect206)">equipo, ou mantedor.
</tspan></tspan><tspan
       x="87.945312"
       y="269.30416"><tspan
         style="shape-inside:url(#rect206)">Podería incluír ligazóns a comunidades, foros, ou </tspan></tspan><tspan
       x="87.945312"
       y="284.30416"><tspan
         style="shape-inside:url(#rect206)">enderezos de correo electrónico para soporte.</tspan></tspan></text>
  <text
     xml:space="preserve"
     style="font-style:normal;font-variant:normal;font-weight:bold;font-stretch:normal;font-size:16px;line-height:normal;font-family:XuntaSans;-inkscape-font-specification:'Xunta Sans';font-variant-ligatures:normal;font-variant-position:normal;font-variant-caps:normal;font-variant-numeric:normal;font-variant-alternates:normal;font-variant-east-asian:normal;font-feature-settings:normal;font-variation-settings:normal;text-indent:0;text-align:start;text-decoration:none;text-decoration-line:none;text-decoration-style:solid;text-decoration-color:#000000;letter-spacing:normal;word-spacing:normal;text-transform:none;writing-mode:lr-tb;direction:ltr;text-orientation:mixed;dominant-baseline:auto;baseline-shift:baseline;text-anchor:start;white-space:normal;shape-padding:0;shape-margin:0;inline-size:0;vector-effect:none;fill:#000000;fill-opacity:1;stroke-width:1;stroke-linecap:butt;stroke-linejoin:miter;stroke-miterlimit:4;stroke-dasharray:none;stroke-dashoffset:0;stroke-opacity:1;stop-color:#000000"
     x="100.96111"
     y="227.68964"
     id="text152"
     transform="translate(-15.229864,99.122723)"><tspan
       sodipodi:role="line"
       id="tspan150"
       x="100.96111"
       y="227.68964"
       style="font-style:normal;font-variant:normal;font-weight:bold;font-stretch:normal;font-size:16px;line-height:normal;font-family:XuntaSans;font-variant-ligatures:normal;font-variant-position:normal;font-variant-caps:normal;font-variant-numeric:normal;font-variant-alternates:normal;font-variant-east-asian:normal;font-feature-settings:normal;font-variation-settings:normal;text-indent:0;text-align:start;text-decoration:none;text-decoration-line:none;text-decoration-style:solid;text-decoration-color:#000000;letter-spacing:normal;word-spacing:normal;text-transform:none;writing-mode:lr-tb;direction:ltr;text-orientation:mixed;dominant-baseline:auto;baseline-shift:baseline;text-anchor:start;white-space:normal;shape-padding:0;shape-margin:0;inline-size:0;vector-effect:none;fill:#000000;fill-opacity:1;stroke-width:1;stroke-linecap:butt;stroke-linejoin:miter;stroke-miterlimit:4;stroke-dasharray:none;stroke-dashoffset:0;stroke-opacity:1;stop-color:#000000;stop-opacity:1">Changelog / Historial de versións</tspan></text>
  <text
     xml:space="preserve"
     id="text154"
     style="font-size:12px;line-height:1.25;font-family:'Xunta Sans';-inkscape-font-specification:'Xunta Sans';white-space:pre;shape-inside:url(#rect156);"
     transform="translate(-3.1500638,106.66676)"><tspan
       x="87.945312"
       y="239.30416"><tspan
         style="shape-inside:url(#rect156)">- Unha lista dos cambios realizados en cada versión do </tspan></tspan><tspan
       x="87.945312"
       y="254.30416"><tspan
         style="shape-inside:url(#rect156)">proxecto..</tspan></tspan></text>
  <text
     xml:space="preserve"
     style="font-style:normal;font-variant:normal;font-weight:bold;font-stretch:normal;font-size:16px;line-height:normal;font-family:XuntaSans;-inkscape-font-specification:'Xunta Sans';font-variant-ligatures:normal;font-variant-position:normal;font-variant-caps:normal;font-variant-numeric:normal;font-variant-alternates:normal;font-variant-east-asian:normal;font-feature-settings:normal;font-variation-settings:normal;text-indent:0;text-align:start;text-decoration:none;text-decoration-line:none;text-decoration-style:solid;text-decoration-color:#000000;letter-spacing:normal;word-spacing:normal;text-transform:none;writing-mode:lr-tb;direction:ltr;text-orientation:mixed;dominant-baseline:auto;baseline-shift:baseline;text-anchor:start;white-space:normal;shape-padding:0;shape-margin:0;inline-size:0;vector-effect:none;fill:#000000;fill-opacity:1;stroke-width:1;stroke-linecap:butt;stroke-linejoin:miter;stroke-miterlimit:4;stroke-dasharray:none;stroke-dashoffset:0;stroke-opacity:1;stop-color:#000000"
     x="100.96111"
     y="227.68964"
     id="text160"
     transform="translate(376.27014,-13.377277)"><tspan
       sodipodi:role="line"
       id="tspan158"
       x="100.96111"
       y="227.68964"
       style="font-style:normal;font-variant:normal;font-weight:bold;font-stretch:normal;font-size:16px;line-height:normal;font-family:XuntaSans;font-variant-ligatures:normal;font-variant-position:normal;font-variant-caps:normal;font-variant-numeric:normal;font-variant-alternates:normal;font-variant-east-asian:normal;font-feature-settings:normal;font-variation-settings:normal;text-indent:0;text-align:start;text-decoration:none;text-decoration-line:none;text-decoration-style:solid;text-decoration-color:#000000;letter-spacing:normal;word-spacing:normal;text-transform:none;writing-mode:lr-tb;direction:ltr;text-orientation:mixed;dominant-baseline:auto;baseline-shift:baseline;text-anchor:start;white-space:normal;shape-padding:0;shape-margin:0;inline-size:0;vector-effect:none;fill:#000000;fill-opacity:1;stroke-width:1;stroke-linecap:butt;stroke-linejoin:miter;stroke-miterlimit:4;stroke-dasharray:none;stroke-dashoffset:0;stroke-opacity:1;stop-color:#000000;stop-opacity:1">Autores e agradecementos</tspan></text>
  <text
     xml:space="preserve"
     id="text162"
     style="font-size:12px;line-height:1.25;font-family:'Xunta Sans';-inkscape-font-specification:'Xunta Sans';white-space:pre;shape-inside:url(#rect164);"
     transform="translate(388.34994,-5.8332423)"><tspan
       x="87.945312"
       y="239.30416"><tspan
         style="shape-inside:url(#rect164)">- Citas a proxectos, códigos ou calquera outro recurso </tspan></tspan><tspan
       x="87.945312"
       y="254.30416"><tspan
         style="shape-inside:url(#rect164)">referenciado ou utilizado.
</tspan></tspan><tspan
       x="87.945312"
       y="269.30416"><tspan
         style="shape-inside:url(#rect164)">- Información sobre quen contribuíu ao proxecto.
</tspan></tspan><tspan
       x="87.945312"
       y="284.30416"><tspan
         style="shape-inside:url(#rect164)">- Agradecementos a colaboradores ou patrocinadores.</tspan></tspan></text>
  <text
     xml:space="preserve"
     style="font-style:normal;font-variant:normal;font-weight:bold;font-stretch:normal;font-size:16px;line-height:normal;font-family:XuntaSans;-inkscape-font-specification:'Xunta Sans';font-variant-ligatures:normal;font-variant-position:normal;font-variant-caps:normal;font-variant-numeric:normal;font-variant-alternates:normal;font-variant-east-asian:normal;font-feature-settings:normal;font-variation-settings:normal;text-indent:0;text-align:start;text-decoration:none;text-decoration-line:none;text-decoration-style:solid;text-decoration-color:#000000;letter-spacing:normal;word-spacing:normal;text-transform:none;writing-mode:lr-tb;direction:ltr;text-orientation:mixed;dominant-baseline:auto;baseline-shift:baseline;text-anchor:start;white-space:normal;shape-padding:0;shape-margin:0;inline-size:0;vector-effect:none;fill:#000000;fill-opacity:1;stroke-width:1;stroke-linecap:butt;stroke-linejoin:miter;stroke-miterlimit:4;stroke-dasharray:none;stroke-dashoffset:0;stroke-opacity:1;stop-color:#000000"
     x="100.96111"
     y="227.68964"
     id="text168"
     transform="translate(376.27014,99.122723)"><tspan
       sodipodi:role="line"
       id="tspan166"
       x="100.96111"
       y="227.68964"
       style="font-style:normal;font-variant:normal;font-weight:bold;font-stretch:normal;font-size:16px;line-height:normal;font-family:XuntaSans;font-variant-ligatures:normal;font-variant-position:normal;font-variant-caps:normal;font-variant-numeric:normal;font-variant-alternates:normal;font-variant-east-asian:normal;font-feature-settings:normal;font-variation-settings:normal;text-indent:0;text-align:start;text-decoration:none;text-decoration-line:none;text-decoration-style:solid;text-decoration-color:#000000;letter-spacing:normal;word-spacing:normal;text-transform:none;writing-mode:lr-tb;direction:ltr;text-orientation:mixed;dominant-baseline:auto;baseline-shift:baseline;text-anchor:start;white-space:normal;shape-padding:0;shape-margin:0;inline-size:0;vector-effect:none;fill:#000000;fill-opacity:1;stroke-width:1;stroke-linecap:butt;stroke-linejoin:miter;stroke-miterlimit:4;stroke-dasharray:none;stroke-dashoffset:0;stroke-opacity:1;stop-color:#000000;stop-opacity:1">Referencias / Fontes</tspan></text>
  <text
     xml:space="preserve"
     id="text170"
     style="font-size:12px;line-height:1.25;font-family:'Xunta Sans';-inkscape-font-specification:'Xunta Sans';white-space:pre;shape-inside:url(#rect172);"
     transform="translate(388.34994,106.66676)"><tspan
       x="87.945312"
       y="239.30416"><tspan
         style="shape-inside:url(#rect172)">- Citas a proxectos, códigos ou calquera outro recurso </tspan></tspan><tspan
       x="87.945312"
       y="254.30416"><tspan
         style="shape-inside:url(#rect172)">referenciado ou utilizado.</tspan></tspan></text>
</svg>
