<?xml version="1.0" encoding="UTF-8" standalone="no"?>
<svg
   xmlns:dc="http://purl.org/dc/elements/1.1/"
   xmlns:cc="http://creativecommons.org/ns#"
   xmlns:rdf="http://www.w3.org/1999/02/22-rdf-syntax-ns#"
   xmlns:svg="http://www.w3.org/2000/svg"
   xmlns="http://www.w3.org/2000/svg"
   xmlns:xlink="http://www.w3.org/1999/xlink"
   xmlns:sodipodi="http://sodipodi.sourceforge.net/DTD/sodipodi-0.dtd"
   xmlns:inkscape="http://www.inkscape.org/namespaces/inkscape"
   version="1.1"
   width="841.89pt"
   height="595.276pt"
   viewBox="0 0 841.89 595.276"
   id="svg109"
   sodipodi:docname="19_Guia_Liberacion_Traballos_Universitarios.svg"
   inkscape:version="1.0.2 (e86c870879, 2021-01-15)">
  <metadata
     id="metadata113">
    <rdf:RDF>
      <cc:Work
         rdf:about="">
        <dc:format>image/svg+xml</dc:format>
        <dc:type
           rdf:resource="http://purl.org/dc/dcmitype/StillImage" />
      </cc:Work>
    </rdf:RDF>
  </metadata>
  <sodipodi:namedview
     pagecolor="#ffffff"
     bordercolor="#666666"
     borderopacity="1"
     objecttolerance="10"
     gridtolerance="10"
     guidetolerance="10"
     inkscape:pageopacity="0"
     inkscape:pageshadow="2"
     inkscape:window-width="1920"
     inkscape:window-height="1016"
     id="namedview111"
     showgrid="false"
     inkscape:zoom="1.0784913"
     inkscape:cx="561.26001"
     inkscape:cy="471.02836"
     inkscape:window-x="1920"
     inkscape:window-y="27"
     inkscape:window-maximized="1"
     inkscape:current-layer="g204" />
  <defs
     id="defs8">
    <rect
       x="150.74599"
       y="154.56779"
       width="281.66329"
       height="13.949956"
       id="rect197" />
    <rect
       x="153.64073"
       y="186.19688"
       width="306.71779"
       height="253.00977"
       id="rect187" />
    <rect
       x="478.36038"
       y="489.64493"
       width="299.21728"
       height="60.385774"
       id="rect181" />
    <clipPath
       id="clip_0">
      <path
         transform="matrix(1,0,0,-1,0,595.276)"
         d="M0 0H841.89V595.276H0Z"
         id="path2" />
    </clipPath>
    <clipPath
       id="clip_1">
      <path
         transform="matrix(1,0,0,-1,0,595.276)"
         d="M146.403 446.862H167.408V466.866H146.403Z"
         id="path5" />
    </clipPath>
  </defs>
  <text
     xml:space="preserve"
     transform="matrix(1 0 -0 1 0 595.276)"
     font-size="12"
     font-family="XuntaSans"
     id="text12"><tspan
       y="-12.4359"
       x="415.089 420.033"
       id="tspan10">19</tspan></text>
  <g
     clip-path="url(#clip_0)"
     id="g18">
    <text
       xml:space="preserve"
       transform="matrix(1 0 -0 1 0 595.276)"
       font-size="11"
       font-family="XuntaSans"
       id="text16"><tspan
         y="-559.2756"
         x="562.4851 570.4821 576.6641 579.34817 585.17819 588.1042 594.4402 600.2702 604.6471 610.4771 613.40316 619.23318 622.1592 625.5252 628.3192 634.7432 640.6062 644.9842 650.8142 656.0612 658.8552 665.08126 671.3732 674.29928 680.63528 686.4982 689.42428 694.13229 698.50918 704.3392 710.6752 716.5052 719.6952 723.0612 729.28726 734.5122 737.43826 743.62026 749.91226 752.70626 758.25027 764.1132 768.6012 773.8262 776.6202 781.3282 787.1582 791.6462 794.4402 800.6662"
         id="tspan14">Guía para a liberación de traballos universitarios</tspan></text>
  </g>
  <path
     transform="matrix(1,0,0,-1,121.8406,52.474428)"
     d="M0 0V-16.474H-8.044V-24.422H-16.13V-32.365H-23.845V-40.011H-31.888V-47.663H-37.404V-54.392H-48.436V-47.663H-53.952V-40.011H-61.996V-32.365H-69.711V-24.422H-77.797V-16.474H-85.841V0H-78.078V8.234H-70.04V16.474H-53.952V8.234H-46.47V0H-39.365V8.234H-31.888V16.474H-15.801V8.234H-7.763V0Z"
     fill="#0a7cba"
     id="path20" />
  <path
     transform="matrix(1,0,0,-1,0,595.276)"
     d="M73.404 495.141H78.919V495.951H73.404Z"
     fill="#0a7cba"
     id="path22" />
  <path
     transform="matrix(1,0,0,-1,121.8405,71.81787)"
     d="M0 0V-265.495H-85.841V.384H-79.943V-7.487H-71.703V-16.115H-64.232V-24.875H-55.807V-33.176H-50.953V-39.934H-34.887V-33.555H-30.034V-25.254H-21.609V-16.499H-14.137V-7.865H-5.898V0Z"
     fill="#0a7cba"
     id="path24" />
  <text
     xml:space="preserve"
     transform="matrix(1 0 -0 1 0 595.276)"
     font-size="25"
     font-family="XuntaSans"
     font-weight="bold"
     id="text28"><tspan
       y="-491.4987"
       x="140.315 154.84 167.84 182.11499 204.86499 220.13999 229.13999"
       id="tspan26">Exemplo</tspan></text>
  <path
     transform="matrix(1,0,0,-1,0,595.276)"
     stroke-width="2"
     stroke-linecap="butt"
     stroke-miterlimit="4"
     stroke-linejoin="miter"
     fill="none"
     stroke="#000000"
     d="M141.732 142.732H759.26699V472.386H141.732Z"
     id="path50" />
  <path
     transform="matrix(1,0,0,-1,0,595.276)"
     stroke-width="2"
     stroke-linecap="butt"
     stroke-miterlimit="4"
     stroke-linejoin="miter"
     fill="none"
     stroke="#000000"
     d="M141.732 421.945H759.26699V473.385H141.732Z"
     id="path52" />
  <text
     xml:space="preserve"
     transform="matrix(1 0 -0 1 0 595.276)"
     font-size="14"
     font-family="XuntaSans"
     id="text56"><tspan
       y="-455.296"
       x="737.1916"
       id="tspan54">X</tspan></text>
  <path
     transform="matrix(1,0,0,-1,0,595.276)"
     stroke-width="1"
     stroke-linecap="butt"
     stroke-miterlimit="4"
     stroke-linejoin="miter"
     fill="none"
     stroke="#000000"
     d="M696.406 455.178H714.398V466.366H696.406Z"
     id="path58" />
  <path
     transform="matrix(1,0,0,-1,659.6221,134.50449)"
     stroke-width="1"
     stroke-linecap="butt"
     stroke-miterlimit="4"
     stroke-linejoin="miter"
     fill="none"
     stroke="#000000"
     d="M0 0 18.992-.142"
     id="path60" />
  <text
     xml:space="preserve"
     transform="matrix(1 0 -0 1 0 595.276)"
     font-size="12"
     font-family="Consolas"
     id="text70"><tspan
       y="-427.886"
       x="197.85364"
       id="tspan68"> </tspan></text>
  <text
     xml:space="preserve"
     transform="matrix(1 0 -0 1 0 595.276)"
     font-size="12"
     font-family="Consolas"
     id="text78"><tspan
       y="-427.886"
       x="269.85365"
       id="tspan76"> </tspan></text>
  <text
     xml:space="preserve"
     transform="matrix(1 0 -0 1 0 595.276)"
     font-size="12"
     font-family="Consolas"
     id="text86"><tspan
       y="-427.886"
       x="315.4536"
       id="tspan84"> </tspan></text>
  <g
     clip-path="url(#clip_1)"
     id="g95">
    <g
       transform="matrix(1.0002258,0,0,1.0002258,146.40314,128.40985)"
       id="g93">
      <image
         id="image_2"
         width="21"
         height="20"
         xlink:href="data:image/png;base64, iVBORw0KGgoAAAANSUhEUgAAABUAAAAUCAIAAADtKeFkAAAACXBIWXMAAA7EAAAO xAGVKw4bAAACN0lEQVR4nMWT32/SUBTH98/pq4kmvvtmfDNLNHFZZiLOLHObbDIz lE2zCZtOiCzDTWalW4EOaCkt/UFb2lIKhULZ6pYsmYIewqMFE33w5OQ83NxPPvd7 b+7Yz3+rsd+Xppb8I+Yofls0rl6/idfaV67dQLQmzI9SDeYGW4H5FGfnMKqAhdz5 H73eSqEsd874tkM1T47rNlpt7amNiFR7y1UCtOJBydmjvNdzy503zy9CfEW0HdZy SLOTMtpIpblbrn8Qq+uc5qfKD79kAzl+KA/CuNbAlepRWUdELcYpEUYK5YU1glvG GTDfDcc3CXYoD+Ezpk1bp0Sjk67bCb35STUjkhHkKwFG9RLS+M4h1bCH8hCebTmo rB+U+vIwI23mS68JfhkvLiTpRwnidnBXbbbd+ctuF3jKOoEjJI0WJI8pZkTsy1cZ xZcvT6eL92NYt9dz55XT8y2hCvC+oEbZ8jYtBvPCao7ry7HC40PyQSw5Ef3acRx3 PlG19lUzZbRQw/qsNXbk+nuxusFpr2h1iZRmssIUQvjSDOx05+GF4NiobkWK8ruC uE7yL3OsD2fmQI6SEwe58QjyBi8M9T/Py6laO65B7HpYNEK8vlbUXlDyAiE+ORYm MQifzBqWu//s8rufVoBHdGuQHK59JcMupuhZrDCNkpNI9k4oVqo33f28/c2DczMZ AWxeUnpGQIvz0LnSIilBz2dL9/bSA2Do+w9KUjSQjOg/8NEtL+wY0UP/39/V/+Z/ Acq6RhHGYUxfAAAAAElFTkSuQmCC" />
    </g>
  </g>
  <g
     id="g204"
     transform="translate(-25.5,-9)">
    <path
       transform="matrix(1,0,0,-1,0,595.276)"
       d="m 467.717,36 h 317.898 v 79.37 H 467.717 Z"
       fill="#8abbdb"
       id="path97" />
    <text
       xml:space="preserve"
       id="text179"
       style="font-size:12px;line-height:1.25;font-family:'Xunta Sans';-inkscape-font-specification:'Xunta Sans';white-space:pre;shape-inside:url(#rect181);"><tspan
         x="478.36133"
         y="500.28853"><tspan
           style="fill:#ffffff">Adapta e personaliza estas seccións segundo as </tspan></tspan><tspan
         x="478.36133"
         y="515.28853"><tspan
           style="fill:#ffffff">necesidades específicas do teu proxecto para facer o </tspan></tspan><tspan
         x="478.36133"
         y="530.28853"><tspan
           style="fill:#ffffff">README o máis útil e comprensible posible para os </tspan></tspan><tspan
         x="478.36133"
         y="545.28853"><tspan
           style="fill:#ffffff">usuarios e colaboradores potenciais.</tspan></tspan></text>
  </g>
  <text
     xml:space="preserve"
     id="text185"
     style="font-size:13px;line-height:2.05;font-family:'Xunta Sans';-inkscape-font-specification:'Xunta Sans';white-space:pre;shape-inside:url(#rect187);"><tspan
       x="153.64062"
       y="202.96437"><tspan
         style="font-style:normal;font-variant:normal;font-weight:normal;font-stretch:normal;font-size:13px;font-family:'Liberation Mono';-inkscape-font-specification:'Liberation Mono'"># Nome do Proxecto 
</tspan></tspan><tspan
       x="153.64062"
       y="229.65049"><tspan
         style="font-style:normal;font-variant:normal;font-weight:normal;font-stretch:normal;font-size:13px;font-family:'Liberation Mono';-inkscape-font-specification:'Liberation Mono'">## Descrición 
</tspan></tspan><tspan
       x="153.64062"
       y="256.3366"><tspan
         style="font-style:normal;font-variant:normal;font-weight:normal;font-stretch:normal;font-size:13px;font-family:'Liberation Mono';-inkscape-font-specification:'Liberation Mono'">Breve descrición do proxecto. 
</tspan></tspan><tspan
       x="153.64062"
       y="283.02269"><tspan
         style="font-style:normal;font-variant:normal;font-weight:normal;font-stretch:normal;font-size:13px;font-family:'Liberation Mono';-inkscape-font-specification:'Liberation Mono'">## Inicio Rápido 
</tspan></tspan><tspan
       x="153.64062"
       y="309.70879"><tspan
         style="font-style:normal;font-variant:normal;font-weight:normal;font-stretch:normal;font-size:13px;font-family:'Liberation Mono';-inkscape-font-specification:'Liberation Mono'">Como instalar e executar o proxecto. 
</tspan></tspan><tspan
       x="153.64062"
       y="336.39489"><tspan
         style="font-style:normal;font-variant:normal;font-weight:normal;font-stretch:normal;font-size:13px;font-family:'Liberation Mono';-inkscape-font-specification:'Liberation Mono'">## Contribuíndo 
</tspan></tspan><tspan
       x="153.64062"
       y="363.08098"><tspan
         style="font-style:normal;font-variant:normal;font-weight:normal;font-stretch:normal;font-size:13px;font-family:'Liberation Mono';-inkscape-font-specification:'Liberation Mono'">Instrucións para contribuír. 
</tspan></tspan><tspan
       x="153.64062"
       y="389.76708"><tspan
         style="font-style:normal;font-variant:normal;font-weight:normal;font-stretch:normal;font-size:13px;font-family:'Liberation Mono';-inkscape-font-specification:'Liberation Mono'">## Licenza 
</tspan></tspan><tspan
       x="153.64062"
       y="416.45317"><tspan
         style="font-style:normal;font-variant:normal;font-weight:normal;font-stretch:normal;font-size:13px;font-family:'Liberation Mono';-inkscape-font-specification:'Liberation Mono'">Detalles da licenza.</tspan></tspan></text>
  <text
     xml:space="preserve"
     style="font-size:12px;line-height:1.25;font-family:'Xunta Sans';-inkscape-font-specification:'Xunta Sans';stroke-width:0.75"
     x="171.12256"
     y="141.9581"
     id="text193"><tspan
       sodipodi:role="line"
       id="tspan191"
       x="171.12256"
       y="141.9581"
       style="font-style:normal;font-variant:normal;font-weight:normal;font-stretch:normal;font-family:'Liberation Mono';-inkscape-font-specification:'Liberation Mono';stroke-width:0.75">README</tspan></text>
  <text
     xml:space="preserve"
     id="text195"
     style="font-size:12px;line-height:1.25;font-family:'Xunta Sans';-inkscape-font-specification:'Xunta Sans';white-space:pre;shape-inside:url(#rect197);"><tspan
       x="150.74609"
       y="165.24569"><tspan
         style="font-style:normal;font-variant:normal;font-weight:normal;font-stretch:normal;font-family:'Liberation Mono';-inkscape-font-specification:'Liberation Mono'">Archivo     Edición    Ver    Axuda</tspan></tspan></text>
</svg>
