<?xml version="1.0" encoding="UTF-8" standalone="no"?>
<svg
   xmlns:dc="http://purl.org/dc/elements/1.1/"
   xmlns:cc="http://creativecommons.org/ns#"
   xmlns:rdf="http://www.w3.org/1999/02/22-rdf-syntax-ns#"
   xmlns:svg="http://www.w3.org/2000/svg"
   xmlns="http://www.w3.org/2000/svg"
   xmlns:sodipodi="http://sodipodi.sourceforge.net/DTD/sodipodi-0.dtd"
   xmlns:inkscape="http://www.inkscape.org/namespaces/inkscape"
   version="1.1"
   width="841.89pt"
   height="595.276pt"
   viewBox="0 0 841.89 595.276"
   id="svg85"
   sodipodi:docname="20_Guia_Liberacion_Traballos_Universitarios.svg"
   inkscape:version="1.0.2 (e86c870879, 2021-01-15)">
  <metadata
     id="metadata89">
    <rdf:RDF>
      <cc:Work
         rdf:about="">
        <dc:format>image/svg+xml</dc:format>
        <dc:type
           rdf:resource="http://purl.org/dc/dcmitype/StillImage" />
      </cc:Work>
    </rdf:RDF>
  </metadata>
  <sodipodi:namedview
     pagecolor="#ffffff"
     bordercolor="#666666"
     borderopacity="1"
     objecttolerance="10"
     gridtolerance="10"
     guidetolerance="10"
     inkscape:pageopacity="0"
     inkscape:pageshadow="2"
     inkscape:window-width="1920"
     inkscape:window-height="1016"
     id="namedview87"
     showgrid="false"
     inkscape:zoom="1.0784913"
     inkscape:cx="561.26001"
     inkscape:cy="396.85067"
     inkscape:window-x="1920"
     inkscape:window-y="27"
     inkscape:window-maximized="1"
     inkscape:current-layer="svg85" />
  <defs
     id="defs5">
    <rect
       x="75.637512"
       y="200.73304"
       width="348.81829"
       height="346.30776"
       id="rect128" />
    <clipPath
       id="clip_0">
      <path
         transform="matrix(1,0,0,-1,0,595.276)"
         d="M0 0H841.89V595.276H0Z"
         id="path2" />
    </clipPath>
    <rect
       x="75.637512"
       y="200.73304"
       width="345.57228"
       height="337.78976"
       id="rect136" />
  </defs>
  <text
     xml:space="preserve"
     transform="matrix(1 0 -0 1 0 595.276)"
     font-size="12"
     font-family="XuntaSans"
     id="text9"><tspan
       y="-12.4359"
       x="414.117 420.405"
       id="tspan7">20</tspan></text>
  <g
     clip-path="url(#clip_0)"
     id="g15">
    <text
       xml:space="preserve"
       transform="matrix(1 0 -0 1 0 595.276)"
       font-size="11"
       font-family="XuntaSans"
       id="text13"><tspan
         y="-559.2756"
         x="562.4851 570.4821 576.6641 579.34817 585.17819 588.1042 594.4402 600.2702 604.6471 610.4771 613.40316 619.23318 622.1592 625.5252 628.3192 634.7432 640.6062 644.9842 650.8142 656.0612 658.8552 665.08126 671.3732 674.29928 680.63528 686.4982 689.42428 694.13229 698.50918 704.3392 710.6752 716.5052 719.6952 723.0612 729.28726 734.5122 737.43826 743.62026 749.91226 752.70626 758.25027 764.1132 768.6012 773.8262 776.6202 781.3282 787.1582 791.6462 794.4402 800.6662"
         id="tspan11">Guía para a liberación de traballos universitarios</tspan></text>
  </g>
  <path
     transform="matrix(1,0,0,-1,401.4607,64.63037)"
     d="M0 0V-56.693H-318.997V-48.679H-314.784V-40.476H-309.228V-33.359H-300.395V-25.34H-292.526V-16.763H-284.133V-7.997H-275.445V0Z"
     fill="#0a7cba"
     id="path17" />
  <path
     d="M 398.976,121.323 H 805.47568 V 64.63 H 398.976 Z"
     fill="#0a7cba"
     id="path19"
     style="stroke-width:1.14428" />
  <path
     transform="matrix(1,0,0,-1,121.8406,52.474428)"
     d="M0 0V-16.474H-8.044V-24.422H-16.13V-32.365H-23.845V-40.011H-31.888V-47.663H-37.404V-54.392H-48.436V-47.663H-53.952V-40.011H-61.996V-32.365H-69.711V-24.422H-77.797V-16.474H-85.841V0H-78.078V8.234H-70.04V16.474H-53.952V8.234H-46.47V0H-39.365V8.234H-31.888V16.474H-15.801V8.234H-7.763V0Z"
     fill="#0a7cba"
     id="path21" />
  <path
     transform="matrix(1,0,0,-1,0,595.276)"
     d="M73.404 495.141H78.919V495.951H73.404Z"
     fill="#0a7cba"
     id="path23" />
  <text
     xml:space="preserve"
     style="font-style:normal;font-variant:normal;font-weight:bold;font-stretch:normal;font-size:25px;line-height:normal;font-family:XuntaSans;-inkscape-font-specification:'Xunta Sans';font-variant-ligatures:normal;font-variant-position:normal;font-variant-caps:normal;font-variant-numeric:normal;font-variant-alternates:normal;font-variant-east-asian:normal;font-feature-settings:normal;font-variation-settings:normal;text-indent:0;text-align:start;text-decoration:none;text-decoration-line:none;text-decoration-style:solid;text-decoration-color:#000000;letter-spacing:normal;word-spacing:normal;text-transform:none;writing-mode:lr-tb;direction:ltr;text-orientation:mixed;dominant-baseline:auto;baseline-shift:baseline;text-anchor:start;white-space:normal;shape-padding:0;shape-margin:0;inline-size:0;vector-effect:none;fill:#ffffff;fill-opacity:1;stroke-width:1;stroke-linecap:butt;stroke-linejoin:miter;stroke-miterlimit:4;stroke-dasharray:none;stroke-dashoffset:0;stroke-opacity:1;stop-color:#000000"
     x="394.36038"
     y="100.68729"
     id="text201"
     transform="translate(-264.04454,2.5071835)"><tspan
       sodipodi:role="line"
       id="tspan199"
       x="394.36038"
       y="100.68729"
       style="font-style:normal;font-variant:normal;font-weight:bold;font-stretch:normal;font-size:25px;line-height:normal;font-family:XuntaSans;font-variant-ligatures:normal;font-variant-position:normal;font-variant-caps:normal;font-variant-numeric:normal;font-variant-alternates:normal;font-variant-east-asian:normal;font-feature-settings:normal;font-variation-settings:normal;text-indent:0;text-align:start;text-decoration:none;text-decoration-line:none;text-decoration-style:solid;text-decoration-color:#000000;letter-spacing:normal;word-spacing:normal;text-transform:none;writing-mode:lr-tb;direction:ltr;text-orientation:mixed;dominant-baseline:auto;baseline-shift:baseline;text-anchor:start;white-space:normal;shape-padding:0;shape-margin:0;inline-size:0;vector-effect:none;fill:#ffffff;fill-opacity:1;stroke-width:1;stroke-linecap:butt;stroke-linejoin:miter;stroke-miterlimit:4;stroke-dasharray:none;stroke-dashoffset:0;stroke-opacity:1;stop-color:#000000;stop-opacity:1">Boas prácticas - 3</tspan></text>
  <text
     xml:space="preserve"
     style="font-style:normal;font-variant:normal;font-weight:bold;font-stretch:normal;font-size:16px;line-height:normal;font-family:XuntaSans;-inkscape-font-specification:'Xunta Sans';font-variant-ligatures:normal;font-variant-position:normal;font-variant-caps:normal;font-variant-numeric:normal;font-variant-alternates:normal;font-variant-east-asian:normal;font-feature-settings:normal;font-variation-settings:normal;text-indent:0;text-align:start;text-decoration:none;text-decoration-line:none;text-decoration-style:solid;text-decoration-color:#000000;letter-spacing:normal;word-spacing:normal;text-transform:none;writing-mode:lr-tb;direction:ltr;text-orientation:mixed;dominant-baseline:auto;baseline-shift:baseline;text-anchor:start;white-space:normal;shape-padding:0;shape-margin:0;inline-size:0;opacity:1;vector-effect:none;fill:#000000;fill-opacity:1;stroke-width:1;stroke-linecap:butt;stroke-linejoin:miter;stroke-miterlimit:4;stroke-dasharray:none;stroke-dashoffset:0;stroke-opacity:1;stop-color:#000000;stop-opacity:1"
     x="79.886581"
     y="141.17018"
     id="text105"
     transform="translate(-4.7344646,33.668797)"><tspan
       sodipodi:role="line"
       id="tspan103"
       x="79.886581"
       y="141.17018"
       style="font-style:normal;font-variant:normal;font-weight:bold;font-stretch:normal;font-size:16px;line-height:normal;font-family:XuntaSans;font-variant-ligatures:normal;font-variant-position:normal;font-variant-caps:normal;font-variant-numeric:normal;font-variant-alternates:normal;font-variant-east-asian:normal;font-feature-settings:normal;font-variation-settings:normal;text-indent:0;text-align:start;text-decoration:none;text-decoration-line:none;text-decoration-style:solid;text-decoration-color:#000000;letter-spacing:normal;word-spacing:normal;text-transform:none;writing-mode:lr-tb;direction:ltr;text-orientation:mixed;dominant-baseline:auto;baseline-shift:baseline;text-anchor:start;white-space:normal;shape-padding:0;shape-margin:0;inline-size:0;vector-effect:none;fill:#000000;fill-opacity:1;stroke-width:1;stroke-linecap:butt;stroke-linejoin:miter;stroke-miterlimit:4;stroke-dasharray:none;stroke-dashoffset:0;stroke-opacity:1;stop-color:#000000;stop-opacity:1">Automatización da comprobación de licenzas</tspan></text>
  <text
     xml:space="preserve"
     id="text126"
     style="font-size:12px;line-height:1.25;font-family:'Xunta Sans';-inkscape-font-specification:'Xunta Sans';white-space:pre;shape-inside:url(#rect128);"><tspan
       x="75.636719"
       y="211.37642"><tspan>A medida que os proxectos medran e dependen de máis </tspan></tspan><tspan
       x="75.636719"
       y="226.37642"><tspan>bibliotecas e compoñentes externos, manualmente seguir e </tspan></tspan><tspan
       x="75.636719"
       y="241.37642"><tspan>actualizar as licenzas pode volverse complexo e propenso a </tspan></tspan><tspan
       x="75.636719"
       y="256.37642"><tspan>erros. Aquí é onde a automatización pode ser útil:
</tspan></tspan><tspan
       x="75.636719"
       y="271.37642"><tspan>
</tspan></tspan><tspan
       x="75.636719"
       y="286.37642"><tspan>Integra Ferramentas de Detección de Licenzas: Usa </tspan></tspan><tspan
       x="75.636719"
       y="301.37642"><tspan>ferramentas como ScanCode ou LicenseFinder para escanear </tspan></tspan><tspan
       x="75.636719"
       y="316.37642"><tspan>automaticamente o teu código en busca de dependencias e as </tspan></tspan><tspan
       x="75.636719"
       y="331.37642"><tspan>súas licenzas asociadas. Estas ferramentas poden integrarse </tspan></tspan><tspan
       x="75.636719"
       y="346.37642"><tspan>con sistemas de integración continua para alertar sobre </tspan></tspan><tspan
       x="75.636719"
       y="361.37642"><tspan>posibles conflitos de licenza ou dependencias non cumpridas </tspan></tspan><tspan
       x="75.636719"
       y="376.37642"><tspan>en tempo real, e ademáis son libres.
</tspan></tspan><tspan
       x="75.636719"
       y="391.37642"><tspan>
</tspan></tspan><tspan
       x="75.636719"
       y="406.37642"><tspan>Actualizacións Periodicas: Configura estas ferramentas para </tspan></tspan><tspan
       x="75.636719"
       y="421.37642"><tspan>que realicen comprobacións periódicas, garantindo que, a </tspan></tspan><tspan
       x="75.636719"
       y="436.37642"><tspan>medida que o proxecto evoluciona, as licenzas das novas </tspan></tspan><tspan
       x="75.636719"
       y="451.37642"><tspan>dependencias sexan xestionadas correctamente.
</tspan></tspan><tspan
       x="75.636719"
       y="466.37642"><tspan>
</tspan></tspan><tspan
       x="75.636719"
       y="481.37642"><tspan>Documentación Transparente: Ademais de manter unha listaxe </tspan></tspan><tspan
       x="75.636719"
       y="496.37642"><tspan>de licenzas, estas ferramentas a miúdo proporcionan insignias </tspan></tspan><tspan
       x="75.636719"
       y="511.37642"><tspan>ou widgets que podes incorporar na túa README ou páxina de </tspan></tspan><tspan
       x="75.636719"
       y="526.37642"><tspan>inicio. Estes ofrecen unha visión en tempo real do estado de </tspan></tspan><tspan
       x="75.636719"
       y="541.37642"><tspan>cumprimento de licenza do teu proxecto.</tspan></tspan></text>
  <text
     xml:space="preserve"
     id="text134"
     style="font-size:12px;line-height:1.25;font-family:'Xunta Sans';-inkscape-font-specification:'Xunta Sans';white-space:pre;shape-inside:url(#rect136);"
     transform="translate(378)"><tspan
       x="75.636719"
       y="211.37642"><tspan>Isto non só simplifica a xestión de licenzas, senón que tamén </tspan></tspan><tspan
       x="75.636719"
       y="226.37642"><tspan>proporciona unha maior confianza aos colaboradores e </tspan></tspan><tspan
       x="75.636719"
       y="241.37642"><tspan>usuarios finais, xa que poden ver que o proxecto está a utilizar </tspan></tspan><tspan
       x="75.636719"
       y="256.37642"><tspan>ferramentas profesionais para xestionar as súas obrigas de </tspan></tspan><tspan
       x="75.636719"
       y="271.37642"><tspan>licenza.</tspan></tspan></text>
</svg>
